<?xml version="1.0" encoding="UTF-8"?>
<svg xmlns="http://www.w3.org/2000/svg" xmlns:xlink="http://www.w3.org/1999/xlink" width="1329.921875pt" height="1504.015625pt" viewBox="0 0 1329.921875 1504.015625" version="1.1">
<defs>
<g>
<symbol overflow="visible" id="glyph0-0">
<path style="stroke:none;" d=""/>
</symbol>
<symbol overflow="visible" id="glyph0-1">
<path style="stroke:none;" d="M 200.453125 -197.625 C 194.046875 -195.078125 186.875 -192 179.96875 -192 L 55.546875 -192 C 48.640625 -192 41.46875 -195.078125 35.078125 -197.625 L 15.359375 -125.953125 L 22.265625 -124.421875 C 31.484375 -157.953125 51.453125 -184.828125 80.390625 -184.828125 L 102.65625 -184.828125 L 102.65625 -20.984375 C 102.65625 -11.78125 92.15625 -6.40625 79.609375 -5.625 L 79.609375 0 L 155.90625 0 L 155.90625 -5.625 C 143.359375 -6.40625 132.859375 -11.78125 132.859375 -20.984375 L 132.859375 -184.828125 L 155.140625 -184.828125 C 184.0625 -184.828125 204.03125 -157.953125 213.25 -124.421875 L 220.15625 -125.953125 Z M 200.453125 -197.625 "/>
</symbol>
<symbol overflow="visible" id="glyph0-2">
<path style="stroke:none;" d="M 227.84375 -192 L 167.421875 -192 L 167.421875 -186.375 C 177.40625 -186.375 193.03125 -174.59375 193.03125 -154.625 L 193.03125 -35.078125 L 57.59375 -192 L 15.359375 -192 L 15.359375 -186.375 C 31.234375 -186.375 40.953125 -174.59375 40.953125 -154.625 L 40.953125 -37.375 C 40.453125 -18.4375 30.203125 -5.625 15.359375 -5.625 L 15.359375 0 L 75.78125 0 L 75.78125 -5.625 C 60.421875 -5.625 50.171875 -18.4375 50.171875 -37.375 L 50.171875 -154.625 L 193.03125 3.84375 L 202.234375 3.84375 L 202.234375 -154.625 C 202.234375 -174.59375 217.859375 -186.375 227.84375 -186.375 Z M 227.84375 -192 "/>
</symbol>
<symbol overflow="visible" id="glyph0-3">
<path style="stroke:none;" d="M 98.046875 -192 L 17.65625 -192 L 17.65625 -186.375 C 29.1875 -185.59375 38.90625 -180.21875 38.90625 -171.015625 L 38.90625 -20.984375 C 38.90625 -11.78125 27.90625 -6.40625 15.359375 -5.625 L 15.359375 0 L 92.671875 0 L 92.671875 -5.625 C 80.125 -6.40625 69.125 -11.78125 69.125 -20.984375 L 69.125 -89.59375 L 92.671875 -89.59375 C 122.875 -89.59375 153.59375 -115.203125 153.59375 -144.125 C 153.59375 -172.28125 128.25 -192 98.046875 -192 Z M 69.125 -96.765625 L 69.125 -184.3125 L 82.6875 -184.3125 C 98.046875 -184.3125 119.546875 -167.171875 119.546875 -135.6875 C 119.546875 -110.34375 102.40625 -96.765625 87.046875 -96.765625 Z M 69.125 -96.765625 "/>
</symbol>
<symbol overflow="visible" id="glyph0-4">
<path style="stroke:none;" d="M 146.6875 -59.90625 C 142.84375 -28.921875 124.421875 -7.171875 95.484375 -7.171875 L 46.34375 -7.171875 L 143.359375 -186.375 L 143.359375 -192 L 28.671875 -192 L 28.671875 -149.765625 L 34.8125 -149.765625 C 36.859375 -173.0625 40.453125 -184.828125 57.859375 -184.828125 L 112.390625 -184.828125 L 15.359375 -5.625 L 15.359375 0 L 122.375 0 C 129.03125 0 139.265625 2.046875 145.921875 3.84375 L 153.59375 -59.390625 Z M 146.6875 -59.90625 "/>
</symbol>
<symbol overflow="visible" id="glyph0-5">
<path style="stroke:none;" d="M 115.203125 3.84375 C 170.234375 3.84375 215.046875 -41.984375 215.046875 -98.046875 C 215.046875 -151.8125 170.234375 -195.84375 115.203125 -195.84375 C 60.15625 -195.84375 15.359375 -151.8125 15.359375 -98.046875 C 15.359375 -41.984375 60.15625 3.84375 115.203125 3.84375 Z M 121.59375 -3.578125 C 80.125 -0.515625 55.546875 -32.25 51.203125 -93.4375 C 47.109375 -152.3125 67.328125 -185.59375 108.796875 -188.421875 C 150.265625 -191.234375 174.84375 -161.28125 178.9375 -102.40625 C 183.296875 -40.953125 163.078125 -6.40625 121.59375 -3.578125 Z M 121.59375 -3.578125 "/>
</symbol>
<symbol overflow="visible" id="glyph0-6">
<path style="stroke:none;" d="M 193.53125 26.375 C 172.546875 26.375 150.265625 9.984375 127.484375 3.078125 C 176.640625 -3.078125 215.046875 -46.34375 215.046875 -98.046875 C 215.046875 -151.8125 170.234375 -195.84375 115.203125 -195.84375 C 60.15625 -195.84375 15.359375 -151.8125 15.359375 -98.046875 C 15.359375 -49.15625 49.40625 -8.1875 94.46875 1.53125 C 79.609375 4.859375 63.484375 12.03125 52.21875 20.21875 L 52.21875 28.921875 C 65.796875 19.203125 77.828125 14.59375 86.78125 14.59375 C 106.234375 14.59375 135.171875 40.453125 170.234375 40.453125 C 193.796875 40.453125 221.4375 29.703125 240.640625 13.3125 L 240.640625 4.609375 C 222.96875 18.6875 206.59375 26.375 193.53125 26.375 Z M 51.203125 -93.4375 C 50.9375 -98.5625 50.6875 -103.421875 50.6875 -108.03125 C 50.6875 -160.25 72.703125 -188.671875 114.171875 -188.671875 C 152.3125 -188.671875 175.109375 -158.71875 178.9375 -102.40625 C 179.453125 -97.03125 179.453125 -91.640625 179.453125 -86.53125 C 179.453125 -32.515625 157.4375 -3.328125 116.21875 -3.328125 C 78.078125 -3.328125 55.296875 -35.078125 51.203125 -93.4375 Z M 51.203125 -93.4375 "/>
</symbol>
<symbol overflow="visible" id="glyph0-7">
<path style="stroke:none;" d="M 128.515625 -105.46875 L 164.359375 -154.375 C 177.15625 -172.03125 193.03125 -186.375 209.921875 -186.375 L 209.921875 -192 L 146.171875 -192 L 146.171875 -186.375 C 166.40625 -186.375 165.375 -171.78125 152.578125 -154.375 L 123.390625 -114.4375 L 99.578125 -156.421875 C 89.859375 -173.5625 88.828125 -186.375 105.21875 -186.375 L 105.21875 -192 L 20.484375 -192 L 20.484375 -186.375 C 37.625 -186.375 59.640625 -172.03125 69.375 -154.375 L 103.421875 -94.203125 L 60.921875 -37.625 C 47.875 -20.21875 32.25 -5.625 15.359375 -5.625 L 15.359375 0 L 79.109375 0 L 79.109375 -5.625 C 58.875 -5.625 59.90625 -20.484375 72.703125 -37.625 L 108.28125 -85.25 L 136.453125 -35.578125 C 145.921875 -18.6875 146.6875 -5.625 130.296875 -5.625 L 130.296875 0 L 215.046875 0 L 215.046875 -5.625 C 196.859375 -5.625 177.65625 -18.4375 166.65625 -37.625 Z M 128.515625 -105.46875 "/>
</symbol>
<symbol overflow="visible" id="glyph0-8">
<path style="stroke:none;" d="M 69.125 -154.875 L 69.125 -171.015625 C 69.125 -180.21875 78.84375 -185.59375 90.375 -186.375 L 90.375 -192 L 17.65625 -192 L 17.65625 -186.375 C 29.1875 -185.59375 38.90625 -180.21875 38.90625 -171.015625 L 38.90625 -20.984375 C 38.90625 -11.78125 27.90625 -6.40625 15.359375 -5.625 L 15.359375 0 L 92.671875 0 L 92.671875 -5.625 C 80.125 -6.40625 69.125 -11.78125 69.125 -20.984375 L 69.125 -52.484375 L 92.671875 -52.484375 C 122.875 -52.484375 153.59375 -78.078125 153.59375 -107.015625 C 153.59375 -135.171875 128.25 -154.875 98.046875 -154.875 Z M 69.125 -59.640625 L 69.125 -147.203125 L 82.6875 -147.203125 C 98.046875 -147.203125 119.546875 -130.046875 119.546875 -98.5625 C 119.546875 -73.21875 102.40625 -59.640625 87.046875 -59.640625 Z M 69.125 -59.640625 "/>
</symbol>
<symbol overflow="visible" id="glyph0-9">
<path style="stroke:none;" d="M 263.9375 -186.375 C 284.15625 -186.375 288.765625 -175.109375 281.859375 -154.625 L 241.15625 -35.578125 L 194.296875 -156.671875 C 186.875 -175.609375 191.234375 -186.375 207.609375 -186.375 L 207.609375 -192 L 130.5625 -192 L 130.5625 -186.375 C 146.171875 -186.375 156.671875 -174.84375 164.609375 -154.625 L 165.625 -151.8125 L 125.953125 -35.578125 L 79.109375 -156.671875 C 71.6875 -175.609375 76.03125 -186.375 92.421875 -186.375 L 92.421875 -192 L 15.359375 -192 L 15.359375 -186.375 C 30.96875 -186.375 41.46875 -174.84375 49.40625 -154.625 L 111.875 5.625 L 121.09375 5.625 L 170.5 -139.265625 L 227.078125 5.625 L 236.28125 5.625 L 291.078125 -154.625 C 297.984375 -175.109375 309.5 -186.375 325.125 -186.375 L 325.125 -192 L 263.9375 -192 Z M 263.9375 -186.375 "/>
</symbol>
<symbol overflow="visible" id="glyph0-10">
<path style="stroke:none;" d="M 15.359375 25.859375 C 15.359375 39.6875 41.21875 46.078125 59.640625 46.078125 C 89.859375 46.078125 122.109375 17.921875 122.109375 -11.015625 L 122.109375 -171.015625 C 122.109375 -180.21875 131.84375 -185.59375 143.359375 -186.375 L 143.359375 -192 L 70.65625 -192 L 70.65625 -186.375 C 82.171875 -185.59375 91.90625 -180.21875 91.90625 -171.015625 L 91.90625 0 C 91.90625 23.8125 80.640625 36.859375 69.375 36.859375 C 63.484375 36.859375 56.578125 32.765625 51.453125 26.625 C 42.75 16.640625 37.890625 12.28125 30.203125 12.28125 C 22.53125 12.28125 15.359375 17.65625 15.359375 25.859375 Z M 15.359375 25.859375 "/>
</symbol>
<symbol overflow="visible" id="glyph0-11">
<path style="stroke:none;" d="M 113.15625 -102.140625 C 131.078125 -111.109375 144.890625 -128.515625 144.890625 -147.453125 C 144.890625 -173.5625 121.859375 -192 93.703125 -192 L 17.65625 -192 L 17.65625 -186.375 C 29.1875 -185.59375 38.90625 -180.21875 38.90625 -171.015625 L 38.90625 -20.984375 C 38.90625 -11.78125 27.90625 -6.40625 15.359375 -5.625 L 15.359375 0 L 96.25 0 C 135.171875 0 161.28125 -22.015625 161.28125 -55.296875 C 161.28125 -79.359375 140.546875 -97.53125 113.15625 -102.140625 Z M 79.359375 -184.828125 C 93.703125 -184.828125 113.15625 -168.953125 113.15625 -139.515625 C 113.15625 -115.96875 97.796875 -103.421875 83.453125 -103.421875 L 69.125 -103.421875 L 69.125 -184.828125 Z M 96 -7.171875 C 78.34375 -7.6875 69.125 -15.609375 69.125 -29.703125 L 69.125 -96.25 L 85.5 -96.25 C 109.5625 -96.25 125.4375 -75.015625 125.4375 -46.59375 C 125.4375 -19.96875 115.203125 -7.6875 96 -7.171875 Z M 96 -7.171875 "/>
</symbol>
<symbol overflow="visible" id="glyph0-12">
<path style="stroke:none;" d="M 146.171875 -186.375 C 166.40625 -186.375 173.0625 -172.546875 161.53125 -154.625 L 122.625 -94.71875 L 84.734375 -154.625 C 72.953125 -173.3125 76.03125 -186.375 92.421875 -186.375 L 92.421875 -192 L 15.359375 -192 L 15.359375 -186.375 C 30.96875 -186.375 40.1875 -173.3125 51.96875 -154.625 L 98.8125 -80.640625 L 98.8125 -36.359375 C 98.8125 -17.921875 89.59375 -5.625 75.515625 -5.625 L 75.515625 0 L 149.765625 0 L 149.765625 -5.625 C 135.6875 -5.625 126.46875 -17.921875 126.46875 -36.359375 L 126.46875 -86.265625 L 170.75 -154.625 C 182.265625 -172.546875 191.75 -186.375 207.359375 -186.375 L 207.359375 -192 L 146.171875 -192 Z M 146.171875 -186.375 "/>
</symbol>
<symbol overflow="visible" id="glyph0-13">
<path style="stroke:none;" d="M 149.5 -186.375 C 169.21875 -186.375 175.109375 -175.109375 175.109375 -154.625 L 175.109375 -48.125 C 175.109375 -27.90625 152.0625 -6.140625 123.390625 -6.140625 C 92.15625 -6.140625 71.171875 -24.828125 71.171875 -48.125 L 71.171875 -155.640625 C 71.171875 -175.359375 77.3125 -186.375 96.765625 -186.375 L 96.765625 -192 L 15.359375 -192 L 15.359375 -186.375 C 30.96875 -186.375 40.953125 -175.359375 40.953125 -155.640625 L 40.953125 -45.5625 C 40.953125 -18.171875 72.953125 3.84375 112.640625 3.84375 C 152.3125 3.84375 184.3125 -18.171875 184.3125 -45.5625 L 184.3125 -154.625 C 184.3125 -175.109375 195.078125 -186.375 209.921875 -186.375 L 209.921875 -192 L 149.5 -192 Z M 149.5 -186.375 "/>
</symbol>
<symbol overflow="visible" id="glyph0-14">
<path style="stroke:none;" d="M 154.109375 -46.078125 C 149.5 -22.78125 132.859375 -7.171875 112.640625 -7.171875 L 69.125 -7.171875 L 69.125 -171.015625 C 69.125 -180.21875 78.84375 -185.59375 90.375 -186.375 L 90.375 -192 L 17.65625 -192 L 17.65625 -186.375 C 29.1875 -185.59375 38.90625 -180.21875 38.90625 -171.015625 L 38.90625 -20.984375 C 38.90625 -11.78125 27.90625 -6.40625 15.359375 -5.625 L 15.359375 0 L 153.59375 0 L 161.28125 -46.078125 Z M 154.109375 -46.078125 "/>
</symbol>
<symbol overflow="visible" id="glyph0-15">
<path style="stroke:none;" d="M 193.03125 -171.015625 C 193.03125 -180.21875 203.015625 -185.59375 215.046875 -186.375 L 215.046875 -192 L 140.796875 -192 L 140.796875 -186.375 C 152.828125 -185.59375 162.8125 -180.21875 162.8125 -171.015625 L 162.8125 -103.421875 L 67.578125 -103.421875 L 67.578125 -171.015625 C 67.578125 -180.21875 77.5625 -185.59375 89.59375 -186.375 L 89.59375 -192 L 15.359375 -192 L 15.359375 -186.375 C 27.390625 -185.59375 37.375 -180.21875 37.375 -171.015625 L 37.375 -20.984375 C 37.375 -11.78125 27.390625 -6.40625 15.359375 -5.625 L 15.359375 0 L 89.59375 0 L 89.59375 -5.625 C 77.5625 -6.40625 67.578125 -11.78125 67.578125 -20.984375 L 67.578125 -96.25 L 162.8125 -96.25 L 162.8125 -20.984375 C 162.8125 -11.78125 152.828125 -6.40625 140.796875 -5.625 L 140.796875 0 L 215.046875 0 L 215.046875 -5.625 C 203.015625 -6.40625 193.03125 -11.78125 193.03125 -20.984375 Z M 193.03125 -171.015625 "/>
</symbol>
<symbol overflow="visible" id="glyph0-16">
<path style="stroke:none;" d="M 145.40625 -53.765625 C 134.90625 -77.3125 124.421875 -91.140625 110.34375 -96.765625 C 131.078125 -105.21875 147.71875 -124.671875 147.71875 -145.65625 C 147.71875 -172.796875 123.90625 -192 94.71875 -192 L 17.65625 -192 L 17.65625 -186.375 C 29.1875 -185.59375 38.90625 -180.21875 38.90625 -171.015625 L 38.90625 -20.984375 C 38.90625 -11.78125 27.90625 -6.40625 15.359375 -5.625 L 15.359375 0 L 90.109375 0 L 90.109375 -5.625 C 77.5625 -6.40625 69.125 -11.78125 69.125 -20.984375 L 69.125 -92.671875 L 77.0625 -92.671875 C 92.15625 -92.671875 107.515625 -68.359375 118.265625 -43.78125 C 132.09375 -13.0625 148.984375 0 169.46875 0 L 184.3125 0 L 184.3125 -5.625 C 172.546875 -5.625 158.96875 -23.546875 145.40625 -53.765625 Z M 69.125 -184.578125 L 79.609375 -184.578125 C 94.71875 -184.578125 114.6875 -168.1875 114.6875 -137.46875 C 114.6875 -113.15625 98.8125 -100.09375 83.96875 -100.09375 L 69.125 -100.09375 Z M 69.125 -184.578125 "/>
</symbol>
<symbol overflow="visible" id="glyph0-17">
<path style="stroke:none;" d="M 152.578125 -46.078125 C 150.015625 -20.484375 143.875 -7.171875 126.46875 -7.171875 L 99.328125 -7.171875 C 80.890625 -7.171875 71.171875 -15.359375 71.171875 -29.703125 L 71.171875 -96.25 L 81.921875 -96.25 C 92.671875 -96.25 107.015625 -85.5 109.0625 -65.53125 L 114.6875 -65.53125 L 114.6875 -134.140625 L 109.0625 -134.140625 C 106.5 -113.40625 100.09375 -103.421875 82.9375 -103.421875 L 71.171875 -103.421875 L 71.171875 -184.828125 L 113.65625 -184.828125 C 131.078125 -184.828125 134.65625 -173.0625 136.703125 -149.765625 L 142.84375 -149.765625 L 142.84375 -192 L 19.453125 -192 L 19.453125 -186.375 C 30.96875 -185.59375 40.953125 -180.21875 40.953125 -171.015625 L 40.953125 -20.984375 C 40.953125 -11.78125 28.921875 -6.40625 15.359375 -5.625 L 15.359375 0 L 155.640625 0 L 158.71875 -46.078125 Z M 152.578125 -46.078125 "/>
</symbol>
<symbol overflow="visible" id="glyph0-18">
<path style="stroke:none;" d="M 107.515625 -192 L 19.453125 -192 L 19.453125 -186.375 C 30.96875 -185.59375 40.953125 -180.21875 40.953125 -171.015625 L 40.953125 -20.984375 C 40.953125 -11.78125 28.921875 -6.40625 15.359375 -5.625 L 15.359375 0 L 107.515625 0 C 162.5625 0 207.359375 -44.03125 207.359375 -98.046875 C 207.359375 -149.765625 162.5625 -192 107.515625 -192 Z M 99.328125 -7.171875 C 80.890625 -7.171875 71.171875 -15.359375 71.171875 -29.703125 L 71.171875 -184.828125 L 76.28125 -184.828125 C 148.734375 -184.828125 171.78125 -145.65625 171.78125 -86.78125 C 171.78125 -34.8125 149.765625 -7.171875 108.28125 -7.171875 Z M 99.328125 -7.171875 "/>
</symbol>
<symbol overflow="visible" id="glyph0-19">
<path style="stroke:none;" d="M 90.109375 -109.828125 L 152.578125 -163.078125 C 169.21875 -177.15625 190.96875 -186.375 207.359375 -186.375 L 207.359375 -192 L 153.59375 -192 L 153.59375 -186.375 C 161.03125 -186.375 162.296875 -184.0625 137.734375 -163.078125 L 67.578125 -103.421875 L 67.578125 -171.015625 C 67.578125 -180.21875 77.5625 -185.59375 89.59375 -186.375 L 89.59375 -192 L 15.359375 -192 L 15.359375 -186.375 C 27.390625 -185.59375 37.375 -180.21875 37.375 -171.015625 L 37.375 -20.984375 C 37.375 -11.78125 27.390625 -6.40625 15.359375 -5.625 L 15.359375 0 L 89.59375 0 L 89.59375 -5.625 C 77.5625 -6.40625 67.578125 -11.78125 67.578125 -20.984375 L 67.578125 -93.703125 L 122.625 -36.609375 C 137.734375 -20.984375 145.921875 -8.1875 145.921875 0 L 212.484375 0 L 212.484375 -5.625 C 194.296875 -5.625 175.875 -20.734375 160.515625 -36.609375 Z M 90.109375 -109.828125 "/>
</symbol>
<symbol overflow="visible" id="glyph0-20">
<path style="stroke:none;" d="M 67.578125 -171.015625 C 67.578125 -180.21875 77.5625 -185.59375 89.59375 -186.375 L 89.59375 -192 L 15.359375 -192 L 15.359375 -186.375 C 27.390625 -185.59375 37.375 -180.21875 37.375 -171.015625 L 37.375 -20.984375 C 37.375 -11.78125 27.390625 -6.40625 15.359375 -5.625 L 15.359375 0 L 89.59375 0 L 89.59375 -5.625 C 77.5625 -6.40625 67.578125 -11.78125 67.578125 -20.984375 Z M 67.578125 -171.015625 "/>
</symbol>
<symbol overflow="visible" id="glyph0-21">
<path style="stroke:none;" d="M 110.84375 -189.953125 L 104.953125 -194.046875 L 73.21875 -177.65625 C 64.765625 -183.296875 55.8125 -188.921875 46.84375 -193.796875 L 41.734375 -190.203125 C 49.40625 -185.34375 57.09375 -179.453125 64.25 -172.796875 L 36.359375 -158.46875 L 42.234375 -154.375 L 69.125 -168.1875 C 81.40625 -155.90625 92.15625 -142.078125 99.328125 -129.28125 C 93.4375 -131.078125 87.046875 -131.84375 80.640625 -131.84375 C 43.265625 -131.84375 12.796875 -101.890625 12.796875 -65.28125 C 12.796875 -27.390625 43.265625 3.84375 80.640625 3.84375 C 118.015625 3.84375 148.484375 -27.390625 148.484375 -65.28125 C 148.484375 -107.78125 118.78125 -144.890625 79.109375 -173.5625 Z M 84.484375 -2.296875 C 59.140625 -0.25 44.03125 -21.25 41.46875 -62.203125 C 38.90625 -101.625 51.203125 -123.90625 76.796875 -125.703125 C 102.140625 -127.75 117.25 -107.78125 119.546875 -68.359375 C 122.375 -27.140625 110.078125 -4.09375 84.484375 -2.296875 Z M 84.484375 -2.296875 "/>
</symbol>
<symbol overflow="visible" id="glyph0-22">
<path style="stroke:none;" d="M 211.96875 -156.671875 C 211.453125 -174.59375 218.109375 -186.375 228.859375 -186.375 L 228.859375 -192 L 175.609375 -192 L 175.609375 -186.375 C 179.453125 -186.375 179.203125 -173.3125 171.78125 -154.625 L 132.359375 -54.015625 L 84.21875 -156.671875 C 75.515625 -175.109375 76.796875 -186.375 80.640625 -186.375 L 80.640625 -192 L 20.484375 -192 L 20.484375 -186.375 C 35.84375 -186.375 45.828125 -174.59375 45.3125 -156.671875 L 41.984375 -37.375 C 41.46875 -16.890625 35.078125 -5.625 15.359375 -5.625 L 15.359375 0 L 75.78125 0 L 75.78125 -5.625 C 60.921875 -5.625 50.6875 -16.890625 51.203125 -37.375 L 54.53125 -154.625 L 116.984375 -15.359375 L 126.203125 -15.359375 L 182.015625 -157.1875 L 185.859375 -37.375 C 186.625 -11.78125 175.875 -6.40625 163.84375 -5.625 L 163.84375 0 L 238.078125 0 L 238.078125 -5.625 C 226.046875 -6.40625 216.828125 -11.78125 216.0625 -37.375 Z M 211.96875 -156.671875 "/>
</symbol>
<symbol overflow="visible" id="glyph0-23">
<path style="stroke:none;" d="M 140.796875 -192 L 17.65625 -192 L 17.65625 -186.375 C 29.1875 -185.59375 38.90625 -180.21875 38.90625 -171.015625 L 38.90625 -20.984375 C 38.90625 -11.78125 27.90625 -6.40625 15.359375 -5.625 L 15.359375 0 L 92.671875 0 L 92.671875 -5.625 C 80.125 -6.40625 69.125 -11.78125 69.125 -20.984375 L 69.125 -92.421875 L 82.4375 -92.421875 C 93.1875 -92.421875 107.515625 -81.65625 109.5625 -61.703125 L 115.203125 -61.703125 L 115.203125 -130.296875 L 109.5625 -130.296875 C 107.015625 -109.5625 100.609375 -99.578125 83.453125 -99.578125 L 69.125 -99.578125 L 69.125 -184.828125 L 111.609375 -184.828125 C 129.03125 -184.828125 132.609375 -173.0625 134.65625 -149.765625 L 140.796875 -149.765625 Z M 140.796875 -192 "/>
</symbol>
<symbol overflow="visible" id="glyph0-24">
<path style="stroke:none;" d="M 191.234375 -81.921875 L 124.671875 -81.921875 L 124.671875 -76.28125 C 140.796875 -76.28125 154.625 -71.171875 155.390625 -65.03125 L 155.390625 -5.375 C 146.9375 -4.09375 137.21875 -3.328125 126.96875 -3.328125 C 77.3125 -3.328125 50.6875 -42.234375 50.6875 -104.953125 C 50.6875 -160.515625 73.46875 -188.671875 117.765625 -188.671875 C 140.28125 -188.671875 159.234375 -182.78125 169.984375 -172.546875 L 177.15625 -141.828125 L 185.59375 -141.828125 L 185.59375 -181.5 C 167.6875 -190.46875 141.3125 -195.84375 115.203125 -195.84375 C 60.15625 -195.84375 15.359375 -151.8125 15.359375 -98.046875 C 15.359375 -36.859375 58.875 3.84375 124.421875 3.84375 C 147.203125 3.84375 170.75 0.515625 191.234375 -5.625 C 189.4375 -11.515625 185.59375 -19.96875 185.59375 -25.859375 L 185.59375 -70.65625 C 185.59375 -73.46875 188.421875 -77.0625 191.234375 -77.0625 Z M 191.234375 -81.921875 "/>
</symbol>
<symbol overflow="visible" id="glyph0-25">
<path style="stroke:none;" d="M 40.453125 -158.203125 C 40.703125 -175.875 52.21875 -188.671875 69.625 -188.671875 C 96.515625 -188.671875 112.125 -180.484375 114.171875 -165.375 L 120.3125 -165.375 L 117.765625 -190.71875 C 102.65625 -194.296875 89.09375 -195.84375 72.1875 -195.84375 C 43.515625 -195.84375 20.21875 -176.125 20.21875 -143.875 C 20.21875 -76.28125 109.828125 -91.90625 109.828125 -38.90625 C 109.828125 -17.65625 93.953125 -3.328125 73.46875 -3.328125 C 47.609375 -3.328125 24.578125 -19.203125 20.984375 -43.015625 L 15.359375 -43.015625 L 15.359375 0 L 18.4375 0 L 23.8125 -10.234375 C 33.796875 -1.53125 51.96875 3.84375 69.375 3.84375 C 105.21875 3.84375 128 -18.9375 128 -50.9375 C 128 -120.828125 39.9375 -113.40625 40.453125 -158.203125 Z M 40.453125 -158.203125 "/>
</symbol>
<symbol overflow="visible" id="glyph0-26">
<path style="stroke:none;" d="M 183.8125 -22.265625 C 169.21875 -15.109375 153.859375 -8.453125 126.96875 -8.453125 C 81.15625 -8.453125 50.6875 -47.109375 50.6875 -104.953125 C 50.6875 -152.578125 71.171875 -188.671875 117.765625 -188.671875 C 140.28125 -188.671875 156.921875 -182.78125 167.421875 -172.546875 L 174.59375 -141.828125 L 183.046875 -141.828125 L 183.046875 -181.5 C 165.125 -190.46875 141.3125 -195.84375 115.203125 -195.84375 C 60.15625 -195.84375 15.359375 -151.8125 15.359375 -98.046875 C 15.359375 -41.984375 60.15625 3.84375 109.5625 3.84375 C 141.3125 3.84375 166.90625 -3.578125 187.640625 -14.34375 Z M 183.8125 -22.265625 "/>
</symbol>
<symbol overflow="visible" id="glyph0-27">
<path style="stroke:none;" d="M 115.96875 -199.6875 L 106.75 -199.6875 L 51.96875 -37.625 C 45.0625 -16.890625 32.25 -5.625 15.359375 -5.625 L 15.359375 0 L 79.109375 0 L 79.109375 -5.625 C 58.875 -5.625 54.265625 -16.890625 61.1875 -37.625 L 75.265625 -79.609375 L 131.84375 -79.609375 L 148.734375 -35.578125 C 156.15625 -16.390625 151.8125 -5.625 135.421875 -5.625 L 135.421875 0 L 215.046875 0 L 215.046875 -5.625 C 198.140625 -5.625 186.375 -17.15625 178.4375 -37.625 Z M 101.890625 -157.953125 L 129.03125 -86.78125 L 77.828125 -86.78125 Z M 101.890625 -157.953125 "/>
</symbol>
<symbol overflow="visible" id="glyph0-28">
<path style="stroke:none;" d="M 148.734375 -192 L 148.734375 -186.375 C 168.953125 -186.375 173.5625 -175.109375 166.65625 -154.625 L 125.953125 -35.578125 L 79.109375 -156.671875 C 71.6875 -175.609375 76.03125 -186.375 92.421875 -186.375 L 92.421875 -192 L 15.359375 -192 L 15.359375 -186.375 C 30.96875 -186.375 41.46875 -174.84375 49.40625 -154.625 L 111.875 5.625 L 121.09375 5.625 L 175.875 -154.625 C 182.78125 -175.109375 194.296875 -186.375 209.921875 -186.375 L 209.921875 -192 Z M 148.734375 -192 "/>
</symbol>
</g>
</defs>
<g id="surface1">
<rect x="0" y="0" width="1329.921875" height="1504.015625" style="fill:rgb(93.333333%,93.333333%,93.333333%);fill-opacity:1;stroke:none;"/>
<g style="fill:rgb(0%,0%,0%);fill-opacity:1;">
  <use xlink:href="#glyph0-1" x="16" y="208"/>
  <use xlink:href="#glyph0-2" x="251.515625" y="208"/>
  <use xlink:href="#glyph0-3" x="494.71875" y="208"/>
  <use xlink:href="#glyph0-4" x="663.671875" y="208"/>
  <use xlink:href="#glyph0-5" x="832.625" y="208"/>
  <use xlink:href="#glyph0-6" x="1063.03125" y="208"/>
</g>
<g style="fill:rgb(0%,0%,0%);fill-opacity:1;">
  <use xlink:href="#glyph0-7" x="16" y="515.203125"/>
  <use xlink:href="#glyph0-8" x="246.40625" y="515.203125"/>
  <use xlink:href="#glyph0-9" x="415.359375" y="515.203125"/>
  <use xlink:href="#glyph0-10" x="755.84375" y="515.203125"/>
  <use xlink:href="#glyph0-11" x="914.5625" y="515.203125"/>
  <use xlink:href="#glyph0-12" x="1091.203125" y="515.203125"/>
</g>
<g style="fill:rgb(0%,0%,0%);fill-opacity:1;">
  <use xlink:href="#glyph0-13" x="16" y="822.40625"/>
  <use xlink:href="#glyph0-14" x="241.28125" y="822.40625"/>
  <use xlink:href="#glyph0-15" x="417.921875" y="822.40625"/>
  <use xlink:href="#glyph0-16" x="648.328125" y="822.40625"/>
  <use xlink:href="#glyph0-17" x="848.015625" y="822.40625"/>
  <use xlink:href="#glyph0-18" x="1022.09375" y="822.40625"/>
</g>
<g style="fill:rgb(0%,0%,0%);fill-opacity:1;">
  <use xlink:href="#glyph0-19" x="16" y="1129.609375"/>
  <use xlink:href="#glyph0-20" x="243.84375" y="1129.609375"/>
  <use xlink:href="#glyph0-21" x="348.796875" y="1129.609375"/>
  <use xlink:href="#glyph0-22" x="510.078125" y="1129.609375"/>
  <use xlink:href="#glyph0-23" x="763.515625" y="1129.609375"/>
  <use xlink:href="#glyph0-24" x="919.671875" y="1129.609375"/>
</g>
<g style="fill:rgb(0%,0%,0%);fill-opacity:1;">
  <use xlink:href="#glyph0-25" x="16" y="1436.8125"/>
  <use xlink:href="#glyph0-26" x="159.359375" y="1436.8125"/>
  <use xlink:href="#glyph0-27" x="361.59375" y="1436.8125"/>
  <use xlink:href="#glyph0-28" x="592" y="1436.8125"/>
</g>
</g>
</svg>
