<?xml version="1.0" encoding="UTF-8"?>
<svg xmlns="http://www.w3.org/2000/svg" xmlns:xlink="http://www.w3.org/1999/xlink" width="1161.203125pt" height="1196.8125pt" viewBox="0 0 1161.203125 1196.8125" version="1.1">
<defs>
<g>
<symbol overflow="visible" id="glyph0-0">
<path style="stroke:none;" d=""/>
</symbol>
<symbol overflow="visible" id="glyph0-1">
<path style="stroke:none;" d="M 111.609375 -180.984375 C 126.71875 -180.984375 142.078125 -174.59375 157.1875 -164.359375 L 133.125 -145.921875 C 120.3125 -155.140625 110.59375 -158.203125 94.46875 -158.203125 C 80.390625 -158.203125 64.765625 -153.59375 55.296875 -146.6875 C 46.078125 -131.328125 40.953125 -113.40625 40.953125 -95.234375 C 40.953125 -55.046875 72.703125 -22.265625 111.609375 -22.265625 C 117.5 -22.265625 123.140625 -22.78125 129.28125 -23.8125 L 129.28125 -81.65625 C 114.171875 -81.65625 98.8125 -81.40625 83.453125 -80.640625 L 105.734375 -100.609375 C 122.625 -99.84375 139.515625 -99.578125 156.421875 -99.578125 L 156.421875 -31.75 C 141.828125 -20.484375 128.765625 -9.984375 111.609375 -2.5625 C 107.015625 -0.515625 99.328125 0.765625 92.671875 0.765625 C 52.21875 0.765625 19.203125 -36.09375 19.203125 -81.65625 C 19.203125 -101.125 21.765625 -114.171875 27.90625 -124.671875 C 41.734375 -148.21875 62.46875 -165.375 89.859375 -177.15625 C 96.515625 -179.96875 104.453125 -180.984375 111.609375 -180.984375 Z M 111.609375 -180.984375 "/>
</symbol>
<symbol overflow="visible" id="glyph0-2">
<path style="stroke:none;" d="M 48.390625 -180.21875 C 47.875 -120.3125 47.109375 -2.046875 47.109375 -0.25 L 19.203125 1.03125 C 19.71875 -58.875 21.25 -176.890625 20.734375 -178.4375 Z M 48.390625 -180.21875 "/>
</symbol>
<symbol overflow="visible" id="glyph0-3">
<path style="stroke:none;" d="M 50.4375 -180.21875 C 67.078125 -138.5 82.171875 -101.625 88.3125 -93.703125 L 123.140625 -177.921875 L 141.0625 -177.921875 C 124.421875 -144.390625 109.5625 -109.828125 96 -74.5 C 95.234375 -50.4375 95.234375 -25.59375 96 -0.515625 L 67.078125 1.03125 C 68.359375 -23.296875 68.359375 -47.875 67.078125 -72.1875 L 19.203125 -173.3125 Z M 50.4375 -180.21875 "/>
</symbol>
<symbol overflow="visible" id="glyph0-4">
<path style="stroke:none;" d="M 98.8125 -180.21875 L 98.5625 -49.921875 C 98.5625 -45.0625 98.296875 -39.421875 94.46875 -34.5625 C 77.0625 -13.828125 57.34375 0 44.796875 0 C 34.5625 0 25.59375 -7.421875 19.203125 -21.25 L 43.265625 -33.53125 C 49.921875 -23.546875 57.59375 -18.171875 64.515625 -18.171875 C 68.609375 -18.171875 71.6875 -30.203125 71.6875 -41.984375 L 71.171875 -178.171875 Z M 98.8125 -180.21875 "/>
</symbol>
<symbol overflow="visible" id="glyph0-5">
<path style="stroke:none;" d="M 156.921875 -1.28125 L 86.265625 -179.96875 L 59.390625 -171.78125 L 64.25 -158.96875 C 45.3125 -104.453125 25.59375 -50.4375 4.859375 0.765625 L 24.828125 -0.765625 L 45.5625 -59.390625 L 103.6875 -59.390625 L 128.515625 4.359375 Z M 73.21875 -137.734375 L 97.28125 -76.03125 L 51.453125 -76.03125 Z M 73.21875 -137.734375 "/>
</symbol>
<symbol overflow="visible" id="glyph0-6">
<path style="stroke:none;" d="M 48.640625 -179.96875 L 49.15625 -16.890625 L 96.25 -16.890625 C 100.859375 -16.890625 108.28125 -17.921875 112.890625 -18.9375 L 106.5 0 L 19.203125 0 C 20.484375 -6.40625 21.5 -16.890625 21.5 -23.546875 L 19.96875 -178.4375 Z M 48.640625 -179.96875 "/>
</symbol>
<symbol overflow="visible" id="glyph0-7">
<path style="stroke:none;" d="M 19.203125 0.25 C 19.203125 -58.625 19.453125 -176.390625 19.203125 -178.171875 L 45.828125 -179.71875 L 46.078125 -89.34375 C 46.078125 -87.8125 48.125 -87.046875 49.15625 -88.3125 L 109.5625 -175.875 L 130.296875 -177.921875 C 108.28125 -151.8125 87.296875 -123.90625 68.859375 -95.75 L 131.578125 -11.515625 L 108.28125 0.515625 L 48.890625 -77.0625 C 47.875 -78.59375 46.078125 -77.5625 46.078125 -76.03125 L 46.34375 0 Z M 19.203125 0.25 "/>
</symbol>
<symbol overflow="visible" id="glyph0-8">
<path style="stroke:none;" d="M 75.515625 -180.21875 C 94.46875 -180.21875 105.984375 -169.984375 111.109375 -157.703125 L 86.015625 -140.796875 C 80.390625 -152.0625 71.9375 -161.28125 56.3125 -161.28125 C 53.25 -161.28125 50.171875 -160.515625 47.875 -159.75 C 44.03125 -153.34375 41.46875 -146.171875 41.46875 -139.515625 C 41.46875 -125.953125 48.125 -115.203125 73.734375 -102.40625 C 103.6875 -87.046875 109.0625 -82.9375 109.0625 -57.859375 C 109.0625 -25.34375 82.6875 1.03125 55.046875 1.03125 C 38.140625 1.03125 29.1875 -5.625 19.203125 -25.59375 L 45.3125 -38.40625 C 53.765625 -22.265625 60.921875 -18.171875 82.171875 -18.171875 C 85.25 -25.09375 88.3125 -32 88.3125 -39.421875 C 88.3125 -55.8125 79.359375 -66.8125 58.375 -76.546875 C 32.515625 -87.8125 21.5 -100.609375 21.5 -119.296875 C 21.5 -128 23.046875 -136.703125 27.640625 -145.40625 C 36.609375 -162.5625 56.578125 -180.21875 75.515625 -180.21875 Z M 75.515625 -180.21875 "/>
</symbol>
<symbol overflow="visible" id="glyph0-9">
<path style="stroke:none;" d="M 25.09375 -179.71875 C 60.671875 -178.6875 96.25 -178.6875 131.578125 -178.6875 L 50.171875 -21.25 L 134.65625 -23.046875 L 128.765625 0 L 19.203125 0 C 47.109375 -51.96875 73.984375 -102.90625 97.796875 -155.640625 C 71.6875 -156.421875 45.5625 -155.90625 19.453125 -154.109375 Z M 25.09375 -179.71875 "/>
</symbol>
<symbol overflow="visible" id="glyph0-10">
<path style="stroke:none;" d="M 93.1875 -97.28125 L 138.75 -179.203125 L 119.296875 -178.171875 L 84.21875 -114.6875 L 51.203125 -179.203125 L 19.203125 -177.15625 L 67.328125 -83.71875 L 21.25 0 L 38.90625 0 L 76.03125 -66.8125 L 111.609375 2.046875 L 143.109375 0 Z M 93.1875 -97.28125 "/>
</symbol>
<symbol overflow="visible" id="glyph0-11">
<path style="stroke:none;" d="M 77.3125 -180.734375 C 103.421875 -180.734375 124.921875 -158.46875 124.921875 -131.328125 C 124.921875 -120.0625 121.34375 -108.546875 115.96875 -102.40625 C 100.609375 -83.71875 79.609375 -71.6875 70.140625 -71.6875 L 48.390625 -71.6875 L 48.890625 -0.25 L 19.203125 0.25 C 20.21875 -59.640625 20.484375 -119.296875 19.453125 -179.203125 Z M 48.125 -89.859375 C 55.546875 -88.0625 62.96875 -86.265625 70.40625 -86.265625 C 77.5625 -86.265625 87.546875 -88.0625 90.375 -89.859375 C 95.234375 -92.921875 99.328125 -106.5 99.328125 -120.0625 C 99.328125 -139.015625 96 -163.578125 48.640625 -163.328125 Z M 48.125 -89.859375 "/>
</symbol>
<symbol overflow="visible" id="glyph0-12">
<path style="stroke:none;" d="M 109.5625 -181.25 C 126.96875 -181.25 142.078125 -176.125 160 -163.84375 L 135.9375 -145.921875 C 122.109375 -154.375 110.078125 -157.953125 95.75 -157.953125 C 79.609375 -157.953125 68.09375 -155.90625 59.140625 -148.484375 C 49.921875 -140.796875 42.234375 -117.765625 42.234375 -97.53125 C 42.234375 -51.71875 71.421875 -22.015625 115.203125 -22.015625 C 129.03125 -22.015625 140.546875 -26.109375 161.796875 -39.171875 L 164.359375 -35.328125 C 132.859375 -6.40625 119.296875 0.765625 96.515625 0.765625 C 50.171875 0.765625 19.203125 -32.25 19.203125 -81.921875 C 19.203125 -104.703125 26.109375 -124.921875 39.171875 -139.515625 C 53.25 -155.90625 70.90625 -167.171875 86.78125 -175.609375 C 93.4375 -179.203125 101.890625 -181.25 109.5625 -181.25 Z M 109.5625 -181.25 "/>
</symbol>
<symbol overflow="visible" id="glyph0-13">
<path style="stroke:none;" d="M 188.421875 -93.703125 C 188.421875 -143.359375 155.90625 -180.21875 113.15625 -180.21875 C 104.453125 -180.21875 95.75 -178.9375 88.578125 -175.359375 C 62.96875 -163.078125 41.46875 -146.171875 30.203125 -125.953125 C 22.78125 -112.640625 19.203125 -97.03125 19.203125 -81.921875 C 19.203125 -43.78125 46.59375 1.03125 94.71875 1.03125 C 105.984375 1.03125 124.421875 -5.625 142.078125 -17.65625 C 150.015625 -12.03125 158.203125 -5.375 165.890625 1.53125 L 186.625 -17.40625 C 178.4375 -23.546875 170.234375 -29.4375 162.5625 -34.8125 C 177.40625 -50.4375 188.421875 -70.40625 188.421875 -93.703125 Z M 40.953125 -96 C 40.953125 -113.15625 46.59375 -130.296875 57.59375 -146.9375 C 67.578125 -153.859375 79.359375 -157.4375 93.4375 -157.4375 C 136.453125 -156.671875 166.90625 -127.75 166.90625 -80.125 C 166.90625 -62.96875 163.078125 -49.40625 155.390625 -39.6875 L 137.46875 -51.71875 C 128.765625 -57.34375 123.90625 -59.140625 118.015625 -59.140625 C 103.6875 -59.140625 88.828125 -49.40625 73.46875 -33.53125 C 54.015625 -46.078125 40.953125 -67.578125 40.953125 -96 Z M 114.4375 -22.015625 C 101.375 -22.015625 89.09375 -25.09375 78.34375 -30.71875 C 83.96875 -36.609375 89.859375 -41.984375 98.296875 -41.984375 C 102.65625 -41.984375 108.03125 -39.6875 116.484375 -34.5625 C 121.09375 -31.75 126.46875 -28.15625 132.359375 -24.3125 C 126.96875 -22.78125 120.828125 -22.015625 114.4375 -22.015625 Z M 114.4375 -22.015625 "/>
</symbol>
<symbol overflow="visible" id="glyph0-14">
<path style="stroke:none;" d="M 47.875 -100.359375 L 120.578125 -100.359375 L 121.09375 -179.71875 L 150.265625 -180.21875 C 148.984375 -120.0625 148.484375 -60.15625 149.25 0 L 118.78125 0 L 120.0625 -81.921875 L 47.875 -81.921875 L 48.390625 0 L 19.203125 0 L 20.734375 -179.71875 L 48.390625 -180.21875 Z M 47.875 -100.359375 "/>
</symbol>
<symbol overflow="visible" id="glyph0-15">
<path style="stroke:none;" d="M 165.125 -41.46875 L 142.34375 -111.875 C 151.8125 -134.65625 161.796875 -157.4375 173.3125 -179.96875 L 151.546875 -177.921875 L 135.171875 -134.90625 L 120.578125 -179.96875 L 90.375 -178.171875 C 100.609375 -150.78125 110.59375 -123.140625 119.8125 -95.234375 L 97.796875 -37.625 L 50.171875 -179.96875 L 19.203125 -178.171875 L 80.890625 0.765625 L 105.46875 -3.328125 L 103.9375 -12.28125 L 126.96875 -73.21875 C 134.90625 -48.890625 142.34375 -24.0625 149.25 0.765625 L 171.515625 -3.328125 C 171.78125 -8.453125 173.3125 -16.890625 175.609375 -24.578125 C 194.5625 -89.09375 214.015625 -138.75 230.65625 -179.96875 L 210.4375 -177.921875 Z M 165.125 -41.46875 "/>
</symbol>
<symbol overflow="visible" id="glyph0-16">
<path style="stroke:none;" d="M 19.203125 -179.453125 C 64 -179.203125 99.078125 -179.203125 111.609375 -180.734375 L 103.6875 -163.078125 C 89.09375 -163.84375 69.890625 -163.84375 47.875 -163.328125 L 47.875 -100.859375 C 60.671875 -100.09375 84.984375 -100.359375 110.84375 -100.859375 C 108.546875 -94.71875 106.234375 -88.828125 102.40625 -83.453125 C 89.34375 -84.21875 69.625 -84.21875 48.125 -84.21875 L 49.15625 -0.25 L 19.203125 0.25 C 19.96875 -59.640625 19.96875 -119.546875 19.203125 -179.453125 Z M 19.203125 -179.453125 "/>
</symbol>
<symbol overflow="visible" id="glyph0-17">
<path style="stroke:none;" d="M 93.703125 -1.03125 C 133.375 -1.03125 169.984375 -40.953125 176.640625 -54.265625 C 184.828125 -69.890625 187.640625 -81.921875 187.640625 -100.09375 C 187.640625 -143.875 153.34375 -181.5 112.890625 -181.5 C 81.40625 -181.5 44.03125 -151.8125 30.71875 -130.046875 C 23.296875 -118.015625 19.203125 -101.125 19.203125 -84.734375 C 19.203125 -38.65625 52.734375 -1.03125 93.703125 -1.03125 Z M 112.890625 -24.0625 C 73.21875 -24.0625 40.953125 -58.375 40.953125 -100.359375 C 40.953125 -118.53125 48.125 -140.28125 57.09375 -148.484375 C 63.75 -153.859375 82.6875 -158.203125 99.078125 -158.203125 C 135.9375 -158.203125 166.140625 -124.15625 166.140625 -82.4375 C 166.140625 -63.484375 159.484375 -41.984375 151.546875 -34.5625 C 145.15625 -28.671875 127.75 -24.0625 112.890625 -24.0625 Z M 112.890625 -24.0625 "/>
</symbol>
<symbol overflow="visible" id="glyph0-18">
<path style="stroke:none;" d="M 47.109375 -54.53125 C 47.359375 -34.296875 65.28125 -18.6875 87.296875 -18.6875 C 105.46875 -18.6875 117.765625 -29.1875 117.765625 -46.078125 L 116.484375 -178.171875 L 144.890625 -178.9375 L 145.40625 -0.515625 L 116.734375 0.515625 L 117.5 -20.984375 C 104.703125 -11.015625 87.8125 2.296875 72.953125 2.296875 C 38.140625 2.296875 19.453125 -16.390625 19.203125 -51.453125 L 19.203125 -178.6875 L 47.109375 -179.71875 Z M 47.109375 -54.53125 "/>
</symbol>
<symbol overflow="visible" id="glyph0-19">
<path style="stroke:none;" d="M 61.4375 -180.984375 L 109.0625 -35.328125 L 156.671875 -177.921875 L 184.828125 -177.921875 L 197.125 0.515625 L 168.453125 0.515625 L 161.03125 -134.90625 C 144.125 -92.15625 128.515625 -47.609375 114.9375 -1.03125 L 93.703125 1.03125 L 46.59375 -139.265625 C 41.734375 -93.4375 38.65625 -47.359375 36.609375 -1.03125 L 19.203125 1.03125 L 35.578125 -168.703125 L 32.515625 -177.40625 Z M 61.4375 -180.984375 "/>
</symbol>
<symbol overflow="visible" id="glyph0-20">
<path style="stroke:none;" d="M 55.546875 -0.25 C 72.703125 -0.25 89.859375 -3.328125 98.5625 -7.6875 C 124.921875 -21.765625 144.125 -41.984375 153.59375 -65.53125 C 157.1875 -72.953125 159.484375 -87.8125 159.484375 -102.65625 C 159.484375 -145.40625 122.625 -179.96875 77.828125 -179.96875 C 58.109375 -179.96875 38.40625 -179.203125 19.203125 -178.4375 L 19.203125 -2.046875 C 31.484375 -1.28125 43.515625 -0.25 55.546875 -0.25 Z M 69.375 -19.71875 C 62.46875 -19.71875 55.296875 -20.984375 48.125 -21.765625 C 47.109375 -68.859375 47.109375 -117.25 48.125 -164.359375 C 95.234375 -164.359375 136.453125 -136.953125 135.6875 -81.65625 C 135.6875 -63.234375 132.859375 -45.0625 122.109375 -34.296875 C 112.640625 -24.828125 93.1875 -19.71875 69.375 -19.71875 Z M 69.375 -19.71875 "/>
</symbol>
<symbol overflow="visible" id="glyph0-21">
<path style="stroke:none;" d="M 47.109375 -181.25 C 75.78125 -138.234375 105.21875 -95.75 135.421875 -54.265625 C 135.421875 -95.75 135.6875 -136.953125 133.890625 -178.4375 L 151.8125 -179.453125 C 150.53125 -121.09375 150.265625 -61.703125 151.546875 -3.328125 L 137.984375 0 L 45.5625 -133.125 C 43.515625 -68.09375 44.03125 -27.90625 45.0625 -2.296875 L 27.90625 0 C 29.4375 -46.84375 29.953125 -99.078125 29.953125 -156.15625 L 19.203125 -173.5625 Z M 47.109375 -181.25 "/>
</symbol>
<symbol overflow="visible" id="glyph0-22">
<path style="stroke:none;" d="M 48.890625 -180.21875 L 96.25 -39.6875 C 97.03125 -37.625 98.5625 -37.625 99.328125 -39.6875 L 143.109375 -177.15625 L 163.578125 -178.9375 C 140.546875 -119.546875 120.828125 -60.421875 104.453125 -1.03125 L 82.171875 1.03125 L 19.203125 -178.171875 Z M 48.890625 -180.21875 "/>
</symbol>
<symbol overflow="visible" id="glyph0-23">
<path style="stroke:none;" d="M 57.09375 0.765625 C 72.703125 0.765625 91.640625 -4.359375 104.1875 -12.28125 C 118.78125 -22.015625 125.1875 -33.28125 125.1875 -50.171875 C 125.1875 -73.984375 114.171875 -87.546875 88.828125 -95.484375 C 99.078125 -101.375 108.796875 -109.0625 113.65625 -114.6875 C 118.78125 -120.828125 121.34375 -129.53125 121.34375 -140.03125 C 121.34375 -161.53125 100.609375 -179.203125 75.515625 -179.203125 C 56.828125 -179.203125 38.140625 -178.4375 19.453125 -177.15625 L 19.203125 -1.28125 C 31.75 0 44.546875 0.765625 57.09375 0.765625 Z M 47.609375 -164.359375 C 51.71875 -164.859375 56.828125 -165.125 60.921875 -165.125 C 80.125 -165.125 95.75 -148.734375 95.75 -128.765625 C 95.75 -117.5 92.671875 -111.359375 80.640625 -97.53125 C 74.234375 -98.046875 68.359375 -98.5625 61.953125 -98.5625 L 47.609375 -88.3125 Z M 76.03125 -8.953125 C 66.046875 -9.734375 56.828125 -12.546875 48.640625 -15.875 L 47.609375 -81.921875 C 48.890625 -82.4375 50.6875 -82.4375 51.96875 -82.4375 C 81.65625 -82.4375 97.796875 -69.625 97.796875 -45.5625 C 97.796875 -30.96875 91.390625 -19.96875 76.03125 -8.953125 Z M 76.03125 -8.953125 "/>
</symbol>
<symbol overflow="visible" id="glyph0-24">
<path style="stroke:none;" d="M 93.703125 -165.375 C 93.1875 -111.609375 94.203125 -55.546875 96.25 -1.796875 L 66.046875 0 C 67.578125 -54.265625 66.5625 -110.84375 66.046875 -165.125 L 19.203125 -164.09375 L 29.703125 -179.71875 L 139.265625 -179.71875 L 130.5625 -165.890625 Z M 93.703125 -165.375 "/>
</symbol>
<symbol overflow="visible" id="glyph0-25">
<path style="stroke:none;" d="M 47.875 -162.8125 C 66.046875 -163.328125 84.734375 -163.328125 103.171875 -162.8125 L 111.875 -179.71875 C 81.15625 -178.4375 50.171875 -178.4375 19.203125 -179.203125 L 19.203125 0 L 103.421875 -0.515625 L 110.078125 -17.921875 C 89.34375 -16.390625 68.609375 -16.390625 47.875 -16.390625 L 47.875 -83.203125 L 102.90625 -83.203125 L 109.828125 -99.84375 L 47.875 -99.84375 Z M 47.875 -162.8125 "/>
</symbol>
<symbol overflow="visible" id="glyph0-26">
<path style="stroke:none;" d="M 131.84375 -10.75 L 76.28125 -86.265625 C 103.9375 -98.046875 122.875 -111.609375 122.875 -137.734375 C 122.875 -163.328125 103.9375 -180.21875 75.515625 -180.21875 C 57.59375 -180.21875 38.140625 -179.203125 20.21875 -177.921875 C 20.484375 -118.265625 19.96875 -58.625 19.203125 1.03125 L 48.640625 0 L 47.875 -76.546875 L 49.65625 -77.0625 L 107.015625 3.328125 Z M 48.125 -165.625 L 56.578125 -165.625 C 83.96875 -163.328125 95.484375 -151.546875 95.484375 -126.46875 C 95.484375 -110.84375 86.78125 -95.234375 78.59375 -95.234375 C 75.515625 -95.234375 71.9375 -96.25 68.09375 -97.796875 L 48.125 -84.984375 Z M 48.125 -165.625 "/>
</symbol>
</g>
</defs>
<g id="surface1">
<rect x="0" y="0" width="1161.203125" height="1196.8125" style="fill:rgb(66.666667%,13.333333%,26.666667%);fill-opacity:1;stroke:none;"/>
<g style="fill:rgb(93.333333%,93.333333%,93.333333%);fill-opacity:1;">
  <use xlink:href="#glyph0-1" x="16" y="220.796875"/>
  <use xlink:href="#glyph0-2" x="192.390625" y="220.796875"/>
  <use xlink:href="#glyph0-3" x="259.96875" y="220.796875"/>
  <use xlink:href="#glyph0-4" x="420.21875" y="220.796875"/>
  <use xlink:href="#glyph0-5" x="538.234375" y="220.796875"/>
  <use xlink:href="#glyph0-6" x="691.828125" y="220.796875"/>
</g>
<g style="fill:rgb(93.333333%,93.333333%,93.333333%);fill-opacity:1;">
  <use xlink:href="#glyph0-7" x="16" y="448"/>
  <use xlink:href="#glyph0-8" x="166.78125" y="448"/>
  <use xlink:href="#glyph0-9" x="297.078125" y="448"/>
  <use xlink:href="#glyph0-10" x="450.9375" y="448"/>
  <use xlink:href="#glyph0-11" x="613.234375" y="448"/>
  <use xlink:href="#glyph0-12" x="757.359375" y="448"/>
</g>
<g style="fill:rgb(93.333333%,93.333333%,93.333333%);fill-opacity:1;">
  <use xlink:href="#glyph0-13" x="16" y="675.203125"/>
  <use xlink:href="#glyph0-14" x="223.609375" y="675.203125"/>
  <use xlink:href="#glyph0-15" x="393.078125" y="675.203125"/>
  <use xlink:href="#glyph0-16" x="642.9375" y="675.203125"/>
  <use xlink:href="#glyph0-17" x="773.75" y="675.203125"/>
  <use xlink:href="#glyph0-18" x="980.59375" y="675.203125"/>
</g>
<g style="fill:rgb(93.333333%,93.333333%,93.333333%);fill-opacity:1;">
  <use xlink:href="#glyph0-19" x="16" y="902.40625"/>
  <use xlink:href="#glyph0-20" x="232.3125" y="902.40625"/>
  <use xlink:href="#glyph0-21" x="411" y="902.40625"/>
  <use xlink:href="#glyph0-22" x="582.015625" y="902.40625"/>
  <use xlink:href="#glyph0-23" x="764.796875" y="902.40625"/>
  <use xlink:href="#glyph0-24" x="909.1875" y="902.40625"/>
</g>
<g style="fill:rgb(93.333333%,93.333333%,93.333333%);fill-opacity:1;">
  <use xlink:href="#glyph0-25" x="16" y="1129.609375"/>
  <use xlink:href="#glyph0-26" x="147.078125" y="1129.609375"/>
</g>
</g>
</svg>
