<?xml version="1.0" encoding="UTF-8" standalone="no"?>
<svg
   xmlns:dc="http://purl.org/dc/elements/1.1/"
   xmlns:cc="http://creativecommons.org/ns#"
   xmlns:rdf="http://www.w3.org/1999/02/22-rdf-syntax-ns#"
   xmlns:svg="http://www.w3.org/2000/svg"
   xmlns="http://www.w3.org/2000/svg"
   xmlns:xlink="http://www.w3.org/1999/xlink"
   xmlns:sodipodi="http://sodipodi.sourceforge.net/DTD/sodipodi-0.dtd"
   xmlns:inkscape="http://www.inkscape.org/namespaces/inkscape"
   width="1001.1458"
   height="1254.0416"
   viewBox="0 0 750.85937 940.53125"
   version="1.1"
   id="svg1880"
   sodipodi:docname="psych-swift.svg"
   inkscape:version="1.0.2 (e86c8708, 2021-01-15)">
  <metadata
     id="metadata1884">
    <rdf:RDF>
      <cc:Work
         rdf:about="">
        <dc:format>image/svg+xml</dc:format>
        <dc:type
           rdf:resource="http://purl.org/dc/dcmitype/StillImage" />
        <dc:title></dc:title>
      </cc:Work>
    </rdf:RDF>
  </metadata>
  <sodipodi:namedview
     pagecolor="#ffffff"
     bordercolor="#666666"
     borderopacity="1"
     objecttolerance="10"
     gridtolerance="10"
     guidetolerance="10"
     inkscape:pageopacity="0"
     inkscape:pageshadow="2"
     inkscape:window-width="1440"
     inkscape:window-height="772"
     id="namedview1882"
     showgrid="false"
     units="px"
     fit-margin-top="16"
     fit-margin-left="16"
     fit-margin-right="32"
     fit-margin-bottom="16"
     inkscape:zoom="0.44974584"
     inkscape:cx="449.43291"
     inkscape:cy="700.39559"
     inkscape:window-x="0"
     inkscape:window-y="25"
     inkscape:window-maximized="0"
     inkscape:current-layer="svg1880" />
  <defs
     id="defs1837">
    <g
       id="g1835">
      <symbol
         overflow="visible"
         id="glyph0-0">
        <path
           style="stroke:none"
           d="m 16.125,0 v -217.59375 h 96 V 0 Z M 32,-16.125 H 96 V -201.73437 H 32 Z m 0,0"
           id="path1790" />
      </symbol>
      <symbol
         overflow="visible"
         id="glyph0-1">
        <path
           style="stroke:none"
           d="m 130.04687,-160.76562 c 0.34375,15.53125 -5.54296,27.13671 -17.65624,34.81249 -8.36719,4.94922 -18.011724,7.42188 -28.937505,7.42188 -9.042969,0 -16.382813,-1.44531 -22.015625,-4.34375 3.757812,15.69922 8.96875,28.414062 15.625,38.140625 4.945312,7.167969 8.015625,11.515625 9.203125,13.046875 2.394531,2.90625 7.003906,7.773438 13.828125,14.59375 8.53125,8.875 12.96875,19.03125 13.3125,30.46875 0,7.34375 -2.73047,13.746094 -8.1875,19.203125 -5.460938,5.460937 -12.289062,8.1875 -20.484375,8.1875 -10.917969,0 -20.476563,-4.09375 -28.671875,-12.28125 -7.511719,-7.507813 -12.714844,-16.726563 -15.609375,-27.65625 -1.367187,-5.289063 -2.136719,-13.566406 -2.3125,-24.828125 0,-6.820312 1.191406,-16.800781 3.578125,-29.9375 2.394531,-13.14453 3.507812,-23.04688 3.34375,-29.70313 -0.179688,-13.14453 -1.460938,-24.41015 -3.84375,-33.79687 -5.460938,-22.35156 -11.515625,-37.28516 -18.171875,-44.79687 -1.199219,-1.36329 -3.25,-1.70704 -6.15625,-1.03125 -1.53125,0.34375 -3.234375,0.51562 -5.109375,0.51562 -3.417969,0 -6.664062,-0.67969 -9.734375,-2.04687 -3.925781,-1.70704 -5.890625,-4.01563 -5.890625,-6.92188 -0.164062,-4.94531 4.359375,-7.42187 13.578125,-7.42187 6.988281,0 12.191406,1.71093 15.609375,5.125 1.019531,0.85546 2.382812,1.10937 4.09375,0.76562 4.945312,-0.85156 12.285156,-2.04687 22.015625,-3.57812 8.195313,-1.03125 14.34375,-1.54688 18.4375,-1.54688 15.53125,0 28.925781,4.69922 40.187505,14.09375 12.96875,10.75 19.62499,25.25781 19.96874,43.51563 z m -10.49999,-2.8125 c -0.16797,-6.14454 -1.02344,-11.26563 -2.5625,-15.35938 -3.58594,-10.75781 -11.00782,-19.03906 -22.26563,-24.84375 -8.710938,-4.60156 -17.585938,-6.90625 -26.625,-6.90625 -11.09375,0 -23.210938,1.62109 -36.34375,4.85938 5.457031,8.02343 11.6875,23.38281 18.6875,46.07812 1.363281,4.27344 3.410156,10.58984 6.140625,18.95313 6.820313,5.46093 17.488281,8.27343 32,8.4375 8.695313,0 16.031255,-2.89844 22.000005,-8.70313 5.97656,-5.80078 8.96875,-13.30469 8.96875,-22.51562 z m 0,0"
           id="path1793" />
      </symbol>
      <symbol
         overflow="visible"
         id="glyph0-2">
        <path
           style="stroke:none"
           d="m 117.76563,-33.28125 c 0,8.023438 -2.3086,15.703125 -6.92188,23.046875 -4.60547,7.335937 -13.480469,11 -26.625,11 C 66.300781,0.765625 51.796875,-6.570312 40.703125,-21.25 35.753906,-27.90625 31.226562,-37.289062 27.125,-49.40625 23.03125,-61.519531 20.984375,-71.675781 20.984375,-79.875 c 0,-4.78125 1.195313,-7.171875 3.59375,-7.171875 1.019531,0 1.957031,0.773437 2.8125,2.3125 6.3125,12.96875 15.441406,19.453125 27.390625,19.453125 10.414062,0 15.625,-4.609375 15.625,-13.828125 0,-8.351563 -6.0625,-16.882813 -18.1875,-25.593755 C 37.539062,-115.10938 29.4375,-121 27.90625,-122.375 c -8.875,-8.01953 -13.3125,-16.37891 -13.3125,-25.07812 0,-8.53125 3.328125,-15.35938 9.984375,-20.48438 6.144531,-4.78125 13.65625,-7.17187 22.53125,-7.17187 8.019531,0 14.414063,1.49609 19.1875,4.48437 4.78125,2.99219 8.707031,8.15234 11.78125,15.48438 2.21875,5.125 3.328125,8.96875 3.328125,11.53125 0,4.77343 -1.792969,7.15625 -5.375,7.15625 -3.074219,0 -5.71875,-1.875 -7.9375,-5.625 -1.710938,-3.23829 -2.5625,-6.48438 -2.5625,-9.73438 0,-2.89453 0.597656,-5.02344 1.796875,-6.39062 -2.21875,-7 -9.304687,-10.5 -21.25,-10.5 -3.417969,0 -6.746094,0.76562 -9.984375,2.29687 -8.875,4.10547 -13.3125,10.33594 -13.3125,18.6875 0,8.54297 5.117188,15.88281 15.359375,22.01562 4.945313,2.74219 12.457031,6.83985 22.53125,12.29688 18.769531,10.75 32.421875,21.335938 40.953125,31.75 10.75781,13.480469 16.14063,29.605469 16.14063,48.375 z m 0,0"
           id="path1796" />
      </symbol>
      <symbol
         overflow="visible"
         id="glyph0-3">
        <path
           style="stroke:none"
           d="m 102.40625,-22.53125 c 0,15.367188 -6.917969,23.046875 -20.75,23.046875 -8.355469,0 -15.605469,-2.046875 -21.75,-6.140625 -20.824219,-14.34375 -31.234375,-36.019531 -31.234375,-65.03125 0,-3.582031 0.425781,-8.828125 1.28125,-15.734375 0.851563,-6.914063 1.28125,-12.082031 1.28125,-15.500005 0,-10.91406 -1.199219,-21.49218 -3.59375,-31.73437 -2.898437,-13.3125 -7.246094,-22.70312 -13.046875,-28.17187 -1.542969,-1.53125 -3.335938,-2.29688 -5.375,-2.29688 H 8.453125 c -1.199219,0.67969 -2.652344,1.01563 -4.359375,1.01563 -2.386719,0 -4.898438,-0.72266 -7.546875,-2.17188 -2.644531,-1.44531 -3.96875,-3.36719 -3.96875,-5.76562 0,-3.40625 2.558594,-5.10938 7.671875,-5.10938 10.414062,0 20.914062,8.70313 31.5,26.10938 2.039062,3.41796 4.171875,8.28125 6.390625,14.59375 2.726563,7.67968 4.609375,12.62499 5.640625,14.84374 4.09375,8.53125 11.429688,12.79688 22.015625,12.79688 6.144531,0 11.347656,-1.19141 15.609375,-3.57813 5.125,-3.07031 7.6875,-7.42578 7.6875,-13.0625 0,-6.98828 -2.480469,-15.17578 -7.4375,-24.56249 C 76.195312,-159.74219 70.226562,-165.125 63.75,-165.125 c -0.179688,0 -1.164062,0.51563 -2.953125,1.54688 -1.792969,1.02343 -3.796875,1.53125 -6.015625,1.53125 -3.074219,0 -6.148438,-0.76954 -9.21875,-2.3125 -3.75,-1.69532 -5.625,-3.91407 -5.625,-6.65625 0,-3.75 3.070312,-5.625 9.21875,-5.625 3.40625,0 7.835938,1.07031 13.296875,3.20312 5.46875,2.13672 10.078125,4.65234 13.828125,7.54688 6.488281,5.125 11.863281,11.82812 16.125,20.10937 4.269531,8.27344 6.40625,16.41797 6.40625,24.4375 0,8.36719 -3.585938,15.10547 -10.75,20.21875 -6.3125,4.617188 -13.824219,6.921875 -22.53125,6.921875 -1.023438,0 -2.601562,-0.125 -4.734375,-0.375 -2.136719,-0.257813 -3.714844,-0.390625 -4.734375,-0.390625 -3.417969,0 -5.125,1.792969 -5.125,5.375 0,4.605469 2.132812,9.636719 6.40625,15.09375 3.582031,4.617188 7.59375,8.289062 12.03125,11.015625 1.539062,0.855469 5.125,2.730469 10.75,5.625 6.488281,3.074219 11.820312,7.9375 16,14.59375 4.1875,6.65625 6.28125,13.570313 6.28125,20.734375 z m 0,0"
           id="path1799" />
      </symbol>
      <symbol
         overflow="visible"
         id="glyph0-4">
        <path
           style="stroke:none"
           d="m 127.75,-39.9375 c 0,11.605469 -3.41797,21.292969 -10.25,29.0625 C 110.67578,-3.113281 101.54688,0.765625 90.109375,0.765625 68.773438,0.765625 51.707031,-8.363281 38.90625,-26.625 34.988281,-32.082031 31.492188,-40.273438 28.421875,-51.203125 25.515625,-60.585938 23.632812,-69.289062 22.78125,-77.3125 21.757812,-86.53125 21.25,-96.171875 21.25,-106.23438 c 0,-17.23828 1.707031,-30.21093 5.125,-38.92187 7.5,-19.96875 20.039062,-29.95312 37.625,-29.95312 14.164062,0 23.894531,6.91406 29.1875,20.73437 1.53125,3.92969 2.296875,7.17188 2.296875,9.73438 0,5.80468 -1.875,8.70312 -5.625,8.70312 -2.730469,0 -5.121094,-1.78906 -7.171875,-5.375 -1.710938,-3.07031 -2.5625,-6.05469 -2.5625,-8.95312 0,-1.53907 0.296875,-3.28907 0.890625,-5.25 0.601563,-1.96875 0.90625,-3.20704 0.90625,-3.71875 0,-2.89454 -2.046875,-5.45313 -6.140625,-7.67188 -3.417969,-1.88281 -7.6875,-2.82812 -12.8125,-2.82812 -3.242188,0 -6.570312,0.85546 -9.984375,2.5625 -12.96875,6.14843 -19.453125,18.4375 -19.453125,36.875 0,13.30468 4.007812,26.78124 12.03125,40.437495 9.382812,15.710937 22.441406,23.5625 39.171875,23.5625 5.289063,0 9.390625,-1.023437 12.296875,-3.078125 1.53125,-1.195312 4.17188,-4.269531 7.92188,-9.21875 1.19531,-1.707031 2.47656,-2.5625 3.84375,-2.5625 3.23828,0 6.82031,3.585938 10.75,10.75 2.5625,4.617188 4.4414,8.96875 5.64062,13.0625 1.70703,6.148438 2.5625,11.949219 2.5625,17.40625 z m 0,0"
           id="path1802" />
      </symbol>
      <symbol
         overflow="visible"
         id="glyph0-5">
        <path
           style="stroke:none"
           d="m 147.96875,-21.25 c 0,6.3125 -1.71094,11.5625 -5.125,15.75 -3.40625,4.179688 -8.27344,6.265625 -14.59375,6.265625 -11.42969,0 -20.98437,-6.566406 -28.671875,-19.703125 C 92.753906,-30.375 89.34375,-42.320312 89.34375,-54.78125 c 0,-1.707031 0.08203,-4.265625 0.25,-7.671875 0.175781,-3.414063 0.265625,-5.976563 0.265625,-7.6875 0,-10.414063 -2.046875,-17.328125 -6.140625,-20.734375 -3.585938,-2.90625 -10.757812,-4.359375 -21.515625,-4.359375 L 45.5625,-94.96875 c 2.5625,7.5 6.234375,15.007812 11.015625,22.515625 2.894531,4.4375 7.585937,9.984375 14.078125,16.640625 5.632812,5.980469 9.472656,11.015625 11.515625,15.109375 3.25,6.148437 4.875,13.570313 4.875,22.265625 0,12.804688 -6.0625,19.203125 -18.1875,19.203125 -8.1875,0 -14.671875,-1.789063 -19.453125,-5.375 C 40.875,-10.921875 35.242188,-18.769531 32.515625,-28.15625 30.296875,-35.5 29.1875,-41.300781 29.1875,-45.5625 c 0,-4.4375 0.425781,-11.175781 1.28125,-20.21875 0.851562,-9.050781 1.28125,-15.878906 1.28125,-20.484375 0,-3.757813 -0.261719,-6.921875 -0.78125,-9.484375 -0.679688,-0.164062 -2.042969,-0.585938 -4.09375,-1.265625 -2.042969,-0.6875 -3.320312,-1.03125 -3.828125,-1.03125 -0.34375,0 -0.859375,0.08984 -1.546875,0.265625 -0.679688,0.167969 -1.1875,0.25 -1.53125,0.25 -1.710938,0 -3.546875,-2.55469 -5.515625,-7.67188 -1.960937,-5.125 -2.9375,-8.88281 -2.9375,-11.28125 0,-0.50781 0.515625,-0.76562 1.546875,-0.76562 0.851562,0 2.128906,0.42969 3.828125,1.28125 3.925781,4.94922 8.453125,8.10547 13.578125,9.46875 -0.6875,-8.69531 -1.460938,-17.31641 -2.3125,-25.85937 -1.1875,-9.20704 -3.578125,-17.56641 -7.171875,-25.07813 -1.1875,-2.5625 -2.464844,-4.44141 -3.828125,-5.64062 -2.054688,1.03125 -4.527344,1.54687 -7.421875,1.54687 -2.90625,0 -5.554687,-0.59766 -7.9375,-1.79687 -3.25,-1.36329 -4.875,-3.32813 -4.875,-5.89063 0,-4.25781 3.84375,-6.39062 11.53125,-6.39062 7.164063,0 13.050781,3.75 17.65625,11.25 3.414063,5.63671 6.316406,13.82812 8.703125,24.57812 1.539062,7.51172 3.078125,15.10937 4.609375,22.79687 0.851563,3.40625 2.132813,7.75782 3.84375,13.04688 8.363281,1.875 18.257813,2.8125 29.6875,2.8125 5.289063,0 9.390625,0.77344 12.296875,2.3125 0.507812,0.34375 0.847656,0.515625 1.015625,0.515625 0.34375,0 0.515625,-1.453125 0.515625,-4.359375 0,-22.01953 -3.757812,-41.30469 -11.265625,-57.85937 -0.855469,-2.03907 -1.792969,-3.0625 -2.8125,-3.0625 -0.511719,0 -1.664063,0.25781 -3.453125,0.76562 -1.792969,0.51172 -3.289062,0.76563 -4.484375,0.76563 -2.898437,0 -5.542969,-0.59766 -7.9375,-1.79688 -3.242187,-1.36328 -4.859375,-3.32812 -4.859375,-5.89062 0,-4.25782 4.007812,-6.39063 12.03125,-6.39063 5.96875,0 10.75,2.13281 14.34375,6.39063 1.53125,1.71093 3.148438,4.52734 4.859375,8.45312 4.257813,9.38672 7.070313,17.15234 8.4375,23.29688 6.488281,28.15624 13.406255,47.617182 20.750005,58.374995 2.55078,3.75 6.13281,7.761719 10.75,12.03125 6.82031,6.480469 10.66015,10.148437 11.51562,11 4.60156,4.78125 7.97266,9.820313 10.10937,15.109375 2.13282,5.292969 3.20313,12.03125 3.20313,20.21875 z m 0,0"
           id="path1805" />
      </symbol>
      <symbol
         overflow="visible"
         id="glyph0-6">
        <path
           style="stroke:none"
           d="m 130.29687,-34.8125 c 0,11.261719 -3.96874,20.09375 -11.90624,26.5 -7.92969,6.398438 -17.60938,9.59375 -29.04688,9.59375 -37.375,0 -56.835938,-29.78125 -58.375,-89.34375 -0.335938,-9.726562 -0.589844,-19.53906 -0.765625,-29.4375 -0.679687,-10.75 -2.554687,-20.39453 -5.625,-28.9375 -0.855469,-2.38281 -2.476563,-5.71094 -4.859375,-9.98437 -2.90625,-5.11329 -5.042969,-7.67188 -6.40625,-7.67188 -0.855469,0 -2.308594,0.25781 -4.359375,0.76563 -2.042969,0.51171 -3.574219,0.76562 -4.59375,0.76562 -7.851563,0 -11.78125,-2.64453 -11.78125,-7.9375 0,-4.25781 3.839844,-6.39062 11.515625,-6.39062 4.78125,0 9.132812,1.875 13.0625,5.625 1.53125,0.51171 3.148438,0.76562 4.859375,0.76562 5.457031,0 13.5625,-0.84766 24.3125,-2.54687 10.757813,-1.70704 18.867187,-2.5625 24.328125,-2.5625 5.125,0 8.453125,0.25781 9.984375,0.76562 3.414063,0.85547 5.207031,3.07422 5.375,6.65625 2.5625,4.09375 3.84375,8.69922 3.84375,13.8125 0,4.96094 -1.28125,7.4375 -3.84375,7.4375 l -1.53125,-1.54687 c -0.179687,-1.01954 -0.433594,-2.55469 -0.765625,-4.60938 -1.886719,-9.20703 -13.070312,-13.8125 -33.546875,-13.8125 -15.023437,0 -24.835937,0.68359 -29.4375,2.04688 2.21875,3.40625 5.546875,8.52734 9.984375,15.35937 1.875,3.24219 4.046875,8.27734 6.515625,15.10938 2.476563,6.82421 4.570313,11.68359 6.28125,14.57812 0.34375,0.6875 8.363281,1.20312 24.0625,1.54687 18.257813,0.33594 27.390625,4 27.390625,11 0,3.58594 -2.558594,5.375 -7.671875,5.375 -4.273437,0 -8.839844,-2.0039 -13.703125,-6.01562 -4.867188,-4.00781 -10.625,-6.01563 -17.28125,-6.01563 -6.824219,0 -10.234375,0.6836 -10.234375,2.04688 v 0.26562 c 2.050781,12.117192 7,22.437505 14.84375,30.968755 8.539063,9.386719 18.78125,14.078125 30.71875,14.078125 4.78125,0 9.093755,-1.617188 12.937505,-4.859375 3.84375,-3.238281 6.10156,-4.859375 6.78125,-4.859375 4.94531,0 9.46875,5.804688 13.5625,17.40625 3.58203,9.554688 5.37499,17.574219 5.37499,24.0625 z m 0,0"
           id="path1808" />
      </symbol>
      <symbol
         overflow="visible"
         id="glyph0-7">
        <path
           style="stroke:none"
           d="m 137.46875,-61.4375 c 0,28.5 -8.53125,47.1875 -25.59375,56.0625 -8.02344,4.273438 -16.8125,6.40625 -26.375,6.40625 -8.023438,0 -14.84375,-0.855469 -20.46875,-2.5625 C 44.539062,-8.1875 34.296875,-29.945312 34.296875,-66.8125 c 0,-4.269531 0.296875,-10.671875 0.890625,-19.203125 0.601562,-8.53125 0.90625,-14.929685 0.90625,-19.203125 0,-12.80078 -1.28125,-23.37891 -3.84375,-31.73437 -3.242188,-10.07032 -8.871094,-18.94532 -16.890625,-26.625 -3.074219,0.85546 -5.632813,1.28125 -7.671875,1.28125 -8.707031,0 -13.0625,-2.5625 -13.0625,-7.6875 0,-2.05079 1.449219,-3.67188 4.34375,-4.85938 2.394531,-1.03125 4.785156,-1.54687 7.171875,-1.54687 5.800781,0 10.066406,1.88281 12.796875,5.64062 10.070312,-1.875 18.945312,-2.8125 26.625,-2.8125 14.34375,0 26.800781,2.73047 37.375,8.1875 9.726562,4.94922 19.375,13.22656 28.9375,24.82813 8.1875,9.73046 14.58594,22.18749 19.20312,37.37499 4.25782,14.000005 6.39063,27.914068 6.39063,41.73438 z m -29.6875,-30.984375 c 0,-18.425785 -4.4375,-34.296875 -13.3125,-47.609375 -12.125,-18.09375 -29.539062,-27.14062 -52.234375,-27.14062 -6.480469,0 -12.964844,0.60156 -19.453125,1.79687 13.3125,13.99219 22.1875,31.14063 26.625,51.45312 0.34375,1.02344 1.023438,4.85938 2.046875,11.51563 1.875,11.949219 4.691406,20.570312 8.453125,25.859375 5.113281,7.34375 13.050781,11.015625 23.8125,11.015625 5.800781,0 11.257812,-2.390625 16.375,-7.171875 5.125,-4.78125 7.6875,-11.351563 7.6875,-19.71875 z m 0,0"
           id="path1811" />
      </symbol>
      <symbol
         overflow="visible"
         id="glyph0-8">
        <path
           style="stroke:none"
           d="m 118.53125,-39.171875 c 0,13.492187 -2.85937,23.605469 -8.57812,30.34375 C 104.23438,-2.085938 96,1.28125 85.25,1.28125 c -17.242188,0 -31.070312,-7.082031 -41.484375,-21.25 -10.40625,-14.164062 -15.609375,-34.472656 -15.609375,-60.921875 0,-3.925781 0.46875,-9.859375 1.40625,-17.796875 0.9375,-7.9375 1.40625,-13.86719 1.40625,-17.79688 0,-7.84375 -1.109375,-15.94531 -3.328125,-24.31249 -2.730469,-10.41407 -6.3125,-17.32813 -10.75,-20.73438 -0.511719,-0.34375 -0.9375,-0.51562 -1.28125,-0.51562 -0.511719,0 -1.449219,0.21484 -2.8125,0.64062 -1.367187,0.42969 -2.476563,0.64063 -3.328125,0.64063 -2.730469,0 -5.632812,-0.67969 -8.703125,-2.04688 -3.75,-1.53906 -5.625,-3.67578 -5.625,-6.40625 0,-4.09375 2.648437,-6.14062 7.9375,-6.14062 5.113281,0 9.632813,1.36718 13.5625,4.09375 8.707031,6.3125 16.472656,20.13671 23.296875,41.46875 2.382812,7.85546 4.6875,15.71093 6.90625,23.56249 2.90625,8.875005 6.320312,15.960942 10.25,21.250005 4.945312,6.648437 11.515625,11.421875 19.703125,14.328125 3.757813,1.367188 8.367187,2.046875 13.828125,2.046875 5.96875,0 11.08594,-1.789063 15.35938,-5.375 1.19531,-0.851563 2.22265,-1.28125 3.07812,-1.28125 2.38281,0 4.17578,1.710937 5.375,5.125 2.72656,8.023437 4.09375,18.34375 4.09375,30.96875 z m 0,0"
           id="path1814" />
      </symbol>
      <symbol
         overflow="visible"
         id="glyph0-9">
        <path
           style="stroke:none"
           d="m 100.85938,-24.578125 c 0,16.730469 -8.023442,25.09375 -24.062505,25.09375 -19.28125,0 -31.914063,-9.898437 -37.890625,-29.703125 -1.53125,-5.113281 -2.296875,-12.878906 -2.296875,-23.296875 0,-7.507813 1.40625,-18.554687 4.21875,-33.140625 2.820313,-14.59375 4.234375,-25.64453 4.234375,-33.15625 0,-17.91406 -2.992188,-31.91016 -8.96875,-41.98437 -1.53125,-2.72657 -2.980469,-4.09375 -4.34375,-4.09375 -0.6875,0 -1.757812,0.21484 -3.203125,0.64062 -1.449219,0.42969 -2.601563,0.64063 -3.453125,0.64063 -2.90625,0 -5.808594,-0.67969 -8.703125,-2.04688 -3.417969,-1.53906 -5.125,-3.59375 -5.125,-6.15625 0,-3.91406 4.265625,-5.875 12.796875,-5.875 6.3125,0 11.347656,1.96094 15.109375,5.875 4.4375,4.61719 8.359375,13.74609 11.765625,27.39063 0.6875,2.90625 2.820312,13.0625 6.40625,30.46874 2.050781,10.58594 5.035156,20.742192 8.953125,30.468755 2.5625,5.804687 7,12.289063 13.3125,19.453125 7.851563,8.875 12.632813,14.59375 14.34375,17.15625 4.601563,6.992188 6.906255,14.414062 6.906255,22.265625 z m 0,0"
           id="path1817" />
      </symbol>
      <symbol
         overflow="visible"
         id="glyph0-10">
        <path
           style="stroke:none"
           d="m 147.71875,-20.21875 c 0,14.167969 -8.36719,21.25 -25.09375,21.25 -8.53125,0 -15.65625,-4.265625 -21.375,-12.796875 C 95.53125,-20.304688 91.5625,-28.925781 89.34375,-37.625 86.78125,-48.207031 85.5,-57.171875 85.5,-64.515625 c 0,-3.070313 0.296875,-7.550781 0.890625,-13.4375 0.601563,-5.882813 0.90625,-10.363281 0.90625,-13.4375 0,-3.238281 -0.08594,-6.226563 -0.25,-8.968755 -4.617187,0.855474 -11.53125,1.281255 -20.75,1.281255 -0.335937,1.199219 -0.761719,3.121094 -1.28125,5.765625 -0.511719,2.648438 -0.765625,5.421875 -0.765625,8.328125 0,6.480469 2.644531,15.265625 7.9375,26.359375 6.488281,13.480469 9.734375,25.683594 9.734375,36.609375 0,7.679687 -1.195313,13.054687 -3.578125,16.125 C 74.75,-1.109375 69.113281,1.28125 61.4375,1.28125 c -5.117188,0 -10.320312,-2.132812 -15.609375,-6.40625 -4.949219,-3.582031 -8.621094,-7.847656 -11.015625,-12.796875 -3.75,-7.332031 -5.625,-17.226563 -5.625,-29.6875 0,-8.363281 2.8125,-17.753906 8.4375,-28.171875 1.375,-2.550781 6.753906,-10.910156 16.140625,-25.07813 -7.511719,-1.53906 -12.546875,-3.84765 -15.109375,-6.92187 -2.21875,-2.38281 -3.328125,-4.94141 -3.328125,-7.67188 0,-3.07031 1.535156,-4.60937 4.609375,-4.60937 2.726562,0 5.328125,1.41406 7.796875,4.23437 2.476563,2.8125 3.632813,5.58594 3.46875,8.3125 1.019531,0.67969 2.894531,1.27344 5.625,1.78125 2.90625,-4.4375 5.550781,-10.28125 7.9375,-17.53125 2.394531,-7.24999 3.59375,-13.43749 3.59375,-18.56249 0,-8.1875 -1.539063,-14.16016 -4.609375,-17.92188 -1.03125,-1.1875 -3.421875,-2.72266 -7.171875,-4.60937 -0.6875,-0.50782 -1.199219,-0.76563 -1.53125,-0.76563 0.164063,0 -1.03125,0.55859 -3.59375,1.67188 -2.5625,1.10546 -5.121094,1.65625 -7.671875,1.65625 -2.90625,0 -5.640625,-0.59375 -8.203125,-1.78125 -3.242187,-1.36329 -4.859375,-3.32813 -4.859375,-5.89063 0,-2.05078 1.453125,-3.75781 4.359375,-5.125 2.382813,-0.85156 4.769531,-1.28125 7.15625,-1.28125 4.613281,0 10.25,1.62109 16.90625,4.85938 10.40625,4.96093 19.707031,14.17968 27.90625,27.65625 6.988281,11.4375 11.765625,23.29687 14.328125,35.57812 3.23828,14.855469 7.84766,26.203125 13.82813,34.046875 4.78125,5.125 11.94531,12.980469 21.49999,23.5625 7.34375,8.699219 11.01563,18.683594 11.01563,29.953125 z m -60.9375,-89.09375 c -0.511719,-15.53125 -4.605469,-29.01562 -12.28125,-40.45312 -0.511719,-0.85157 -0.855469,-1.28125 -1.03125,-1.28125 0,0 0,0.0898 0,0.26562 1.03125,3.92969 1.546875,8.02344 1.546875,12.28125 0,5.80469 -0.945313,12.12109 -2.828125,18.95312 -0.855469,3.24219 -2.21875,8.10547 -4.09375,14.59375 7,0 12.71875,-0.59765 17.15625,-1.79687 1.019531,-0.17578 1.53125,-1.03125 1.53125,-2.5625 z m 0,0"
           id="path1820" />
      </symbol>
      <symbol
         overflow="visible"
         id="glyph0-11">
        <path
           style="stroke:none"
           d="m 144.39062,-40.953125 c 0,9.554687 -2.82031,18.9375 -8.45312,28.15625 -5.63672,9.21875 -16.64844,13.828125 -33.03125,13.828125 -21.84375,0 -39.761719,-9.21875 -53.75,-27.65625 -7,-9.039062 -12.976562,-21.84375 -17.921875,-38.40625 -4.4375,-14.5 -6.65625,-26.101562 -6.65625,-34.8125 0,-5.625 1.28125,-8.4375 3.84375,-8.4375 0.851563,0 1.960937,1.19531 3.328125,3.57812 3.75,6.656255 7.925781,11.85938 12.53125,15.60938 6.65625,5.636719 13.992188,8.453125 22.015625,8.453125 13.3125,0 19.96875,-6.054687 19.96875,-18.171875 0,-10.92578 -7.679687,-21.84766 -23.03125,-32.76562 -16.730469,-11.78125 -26.714844,-19.20704 -29.953125,-22.28125 -11.09375,-10.23829 -16.640625,-20.81641 -16.640625,-31.73438 0,-10.41406 4.09375,-18.86328 12.28125,-25.34375 7.6875,-5.80078 16.90625,-8.70312 27.65625,-8.70312 5.96875,0 11.425781,0.76562 16.375,2.29687 5.976563,1.875 10.585937,4.69531 13.828125,8.45313 2.726562,2.89843 5.375,7.5 7.9375,13.8125 0.851562,2.05468 2.046875,5.29687 3.578125,9.73437 0.6875,2.90625 0.6875,5.63672 0,8.1875 -0.84375,3.25 -2.71875,4.875 -5.625,4.875 -4.605469,0 -8.1875,-3.41406 -10.75,-10.25 -1.199219,-2.89453 -1.796875,-5.70703 -1.796875,-8.4375 0,-3.75781 0.851562,-6.40625 2.5625,-7.9375 -0.855469,-3.07031 -2.992188,-6.0625 -6.40625,-8.96875 -4.09375,-3.40625 -11.089844,-5.10937 -20.984375,-5.10937 -4.273437,0 -8.539063,1.02343 -12.796875,3.0625 -11.4375,5.29296 -17.15625,13.3125 -17.15625,24.0625 0,11.78125 6.570312,21.51171 19.71875,29.1875 6.3125,3.24218 15.695312,8.35937 28.15625,15.35937 23.550781,13.3125 40.70313,26.71094 51.45313,40.1875 13.14453,16.5625 19.71874,36.621094 19.71874,60.171875 z m 0,0"
           id="path1823" />
      </symbol>
      <symbol
         overflow="visible"
         id="glyph0-12">
        <path
           style="stroke:none"
           d="m 185.85937,-13.828125 c 0,9.730469 -4.94921,14.59375 -14.84375,14.59375 -8.71093,0 -16.30859,-2.046875 -22.79687,-6.140625 -4.26172,-2.726562 -10.23438,-8.019531 -17.92188,-15.875 -12.79296,-13.476562 -21.49609,-26.703125 -26.10937,-39.671875 -5.117188,-14.851563 -7.671875,-27.144531 -7.671875,-36.875 0,-1.1875 0.125,-3.019535 0.375,-5.500005 0.257813,-2.47656 0.390625,-4.3125 0.390625,-5.5 0,-2.5625 -0.601562,-3.84375 -1.796875,-3.84375 -0.167969,0.16797 -0.339844,0.42188 -0.515625,0.76563 -1.023438,2.39844 -2.042969,8.625 -3.0625,18.6875 -0.34375,3.585938 -0.515625,7 -0.515625,10.25 0,12.117188 1.878906,23.039062 5.640625,32.765625 2.550781,5.625 5.10938,11.171875 7.67188,16.640625 3.58203,7.511719 5.375,13.140625 5.375,16.890625 0,11.4375 -6.23047,17.15625 -18.687505,17.15625 -8.367187,0 -17.75,-3.753906 -28.15625,-11.265625 -9.5625,-7 -16.5625,-14.507812 -21,-22.53125 -12.460937,-22.1875 -18.6875,-46.847656 -18.6875,-73.98438 0,-1.19531 0.08594,-3.07031 0.265625,-5.625 0,-2.39453 0,-4.1875 0,-5.375 0,-6.32031 -1.367188,-14.42968 -4.09375,-24.32812 -3.074219,-11.25781 -6.492188,-18.34375 -10.25,-21.25 -1.023438,0.34375 -2.042969,0.51563 -3.0625,0.51563 -2.5625,0 -5.042969,-0.67969 -7.4375,-2.04688 -2.894531,-1.36328 -4.34375,-3.24219 -4.34375,-5.64062 0,-3.40625 2.558594,-5.10938 7.671875,-5.10938 4.101563,0 8.03125,1.70313 11.78125,5.10938 7.507813,7.34375 13.910156,22.92187 19.203125,46.73437 5.289062,23.80469 13.566406,40.140625 24.828125,49.015625 6.832031,5.460937 12.632813,8.1875 17.40625,8.1875 2.21875,0 4.351563,-4.175781 6.40625,-12.53125 C 83.117188,-85.078125 84.226562,-90.539062 85.25,-96 c 3.414062,-16.03906 5.125,-26.28125 5.125,-30.71875 0,-5.63281 -0.855469,-12.11719 -2.5625,-19.45312 -2.054688,-8.875 -4.617188,-14.67579 -7.6875,-17.40625 -2.21875,1.1875 -4.777344,1.78125 -7.671875,1.78125 -2.90625,0 -5.640625,-0.59375 -8.203125,-1.78125 -3.242188,-1.36329 -4.859375,-3.32813 -4.859375,-5.89063 0,-4.26953 3.835937,-6.40625 11.515625,-6.40625 5.125,0 9.476562,1.71094 13.0625,5.125 6.488281,6.14844 12.972656,21.80859 19.45313,46.98437 6.48828,25.167974 14.67968,41.761724 24.57812,49.781255 5.80078,4.605469 11.26562,6.90625 16.39062,6.90625 2.03907,0 3.14844,-1.445313 3.32813,-4.34375 0.16406,-1.019531 0.25,-7.675781 0.25,-19.96875 0,-5.457031 0.80469,-13.601565 2.42187,-24.437505 1.625,-10.84375 2.4375,-19.08203 2.4375,-24.71874 0,-13.13282 -2.64843,-20.47266 -7.9375,-22.01563 -1.875,0.6875 -4.09375,1.03125 -6.65625,1.03125 -2.89843,0 -5.54296,-0.51562 -7.9375,-1.54687 -3.24218,-1.53125 -4.85937,-3.57813 -4.85937,-6.14063 0,-4.25781 3.83594,-6.39062 11.51562,-6.39062 8.53907,0 14.85938,4.09375 18.95313,12.28125 3.23828,6.14843 4.85937,13.99609 4.85937,23.54687 0,4.61719 -0.51171,11.53125 -1.53125,20.75 -1.02343,9.21094 -1.53125,16.12109 -1.53125,20.734375 0,13.136719 2.55469,26.871094 7.67188,41.203125 1.01953,3.25 5.03125,10.335938 12.03125,21.25 5.63281,8.875 8.45312,16.214844 8.45312,22.015625 z m 0,0"
           id="path1826" />
      </symbol>
      <symbol
         overflow="visible"
         id="glyph0-13">
        <path
           style="stroke:none"
           d="m 99.078125,-23.296875 c 0,6.3125 -1.539063,11.859375 -4.609375,16.640625 -3.585938,5.292969 -8.367188,7.9375 -14.34375,7.9375 -8.53125,0 -15.402344,-1.578125 -20.609375,-4.734375 -5.199219,-3.15625 -10.105469,-8.488281 -14.71875,-16 -8.53125,-14 -13.734375,-33.457031 -15.609375,-58.375 0,-9.207031 -0.601562,-23.031255 -1.796875,-41.468755 -0.855469,-6.65625 -2.859375,-14.42187 -6.015625,-23.29687 -3.15625,-8.875 -6.609375,-15.78516 -10.359375,-20.73437 -1.710937,1.02343 -3.929687,1.53125 -6.65625,1.53125 -3.074219,0 -6.234375,-0.76563 -9.484375,-2.29688 -3.75,-1.875 -5.625,-4.17969 -5.625,-6.92187 0,-3.75 3.414062,-5.625 10.234375,-5.625 3.25,0 6.320313,1.02734 9.21875,3.07812 2.90625,2.04297 5.039063,3.0625 6.40625,3.0625 5.800781,0 14.375,-0.84766 25.71875,-2.54687 11.351563,-1.70704 19.84375,-2.5625 25.46875,-2.5625 9.050781,0 14.171875,0.85156 15.359375,2.54687 0.519531,0.6875 1.035156,2.48047 1.546875,5.375 2.21875,3.25 3.328125,7.85938 3.328125,13.82813 0,4.61718 -1.199219,6.92187 -3.59375,6.92187 -0.679688,0 -1.1875,-0.51562 -1.53125,-1.54687 -0.511719,-1.70704 -1.449219,-4.4375 -2.8125,-8.1875 -3.929688,-6.82032 -14.59375,-10.23438 -32,-10.23438 -9.042969,0 -18.601562,0.59375 -28.671875,1.78125 l -0.765625,0.51563 c 2.550781,3.58593 5.878906,8.62109 9.984375,15.10937 2.21875,4.09375 6.398437,14.41797 12.546875,30.96875 6.3125,0.6875 10.148438,1.03125 11.515625,1.03125 1.707031,0 4.265625,-0.125 7.671875,-0.375 3.414062,-0.25781 5.976562,-0.39063 7.6875,-0.39063 5.457031,0 10.488281,0.6836 15.09375,2.04688 6.65625,2.04297 9.984375,5.19922 9.984375,9.46875 0,3.41797 -2.304687,5.125 -6.90625,5.125 -3.074219,0 -6.277344,-0.85156 -9.609375,-2.5625 -3.324219,-1.70703 -5.667969,-3.84375 -7.03125,-6.40625 -0.167969,-0.50781 -0.507812,-0.84766 -1.015625,-1.01563 -3.417969,-0.85156 -8.453125,-1.28125 -15.109375,-1.28125 -4.605469,0 -8.015625,0.25782 -10.234375,0.76563 4.4375,14.84375 8.875,25.167969 13.3125,30.96875 4.769531,6.3125 11.507813,12.117188 20.21875,17.40625 6.820313,4.273438 12.492187,10.164062 17.015625,17.671875 4.53125,7.511719 6.796875,15.105469 6.796875,22.78125 z m 0,0"
           id="path1829" />
      </symbol>
      <symbol
         overflow="visible"
         id="glyph0-14">
        <path
           style="stroke:none"
           d="m 103.9375,-20.484375 c 0,6.65625 -2.00781,11.824219 -6.015625,15.5 -4.011719,3.667969 -9.34375,5.5 -16,5.5 -8.710937,0 -16.476563,-2.6875 -23.296875,-8.0625 -6.824219,-5.375 -11.773438,-12.242187 -14.84375,-20.609375 -1.542969,-4.269531 -2.3125,-12.460938 -2.3125,-24.578125 0,-6.488281 1.066406,-16.128906 3.203125,-28.921875 2.132813,-12.800781 3.203125,-22.36328 3.203125,-28.6875 0,-24.0625 -3.757812,-42.66016 -11.265625,-55.79687 -2.90625,0 -7.304687,0.38671 -13.1875,1.15625 -5.886719,0.76171 -10.367187,1.14062 -13.4375,1.14062 -3.242187,0 -6.652344,-0.9375 -10.234375,-2.8125 -4.101562,-2.21875 -6.15625,-4.78125 -6.15625,-7.6875 0,-3.75 2.820312,-5.625 8.453125,-5.625 3.070313,0 6.144531,0.85547 9.21875,2.5625 3.75,1.71094 5.796875,3.92969 6.140625,6.65625 1.019531,0 2.898438,0 5.640625,0 5.800781,0 13.050781,-0.50781 21.75,-1.53125 0.851563,-0.17578 5.800781,-1.03125 14.84375,-2.5625 6.144531,-1.19531 11.179687,-1.79687 15.109375,-1.79687 2.394531,0 4.273438,0.17187 5.640625,0.51562 2.21875,0.34375 3.835937,1.88281 4.859375,4.60938 3.070312,8.02343 4.609375,13.3125 4.609375,15.875 0,1.1875 -0.386719,2.51171 -1.15625,3.96875 -0.773437,1.44921 -1.667969,2.17187 -2.6875,2.17187 -0.6875,0 -1.117187,-0.59766 -1.28125,-1.79687 -1.367187,-6.3125 -4.265625,-10.83204 -8.703125,-13.5625 -3.929688,-2.21875 -8.703125,-3.32813 -14.328125,-3.32813 -2.21875,0 -5.210937,0.16797 -8.96875,0.5 -4.261719,0.6875 -7.164063,1.03125 -8.703125,1.03125 3.582031,6.3125 6.398438,14.93359 8.453125,25.85938 3.070313,15.69921 4.863281,24.57421 5.375,26.62499 2.726563,9.21094 4.859375,15.777349 6.390625,19.70313 2.738281,7.6875 5.726562,13.835938 8.96875,18.4375 6.65625,8.367188 13.394531,16.8125 20.21875,25.34375 7,9.730469 10.5,19.796875 10.5,30.203125 z m 0,0"
           id="path1832" />
      </symbol>
    </g>
  </defs>
  <rect
     x="0"
     y="0"
     width="750.85944"
     height="940.53125"
     style="fill:#ff0099;fill-opacity:1;stroke:none;stroke-width:1"
     id="rect1839" />
  <g
     style="fill:#ffff66;fill-opacity:1"
     id="g1853"
     transform="translate(11.924032,12)">
    <use
       xlink:href="#glyph0-1"
       x="16"
       y="296.0625"
       id="use1841"
       width="100%"
       height="100%" />
    <use
       xlink:href="#glyph0-2"
       x="151.42188"
       y="296.0625"
       id="use1843"
       width="100%"
       height="100%" />
    <use
       xlink:href="#glyph0-3"
       x="250.5"
       y="296.0625"
       id="use1845"
       width="100%"
       height="100%" />
    <use
       xlink:href="#glyph0-4"
       x="353.40625"
       y="296.0625"
       id="use1847"
       width="100%"
       height="100%" />
    <use
       xlink:href="#glyph0-5"
       x="462.96875"
       y="296.0625"
       id="use1849"
       width="100%"
       height="100%" />
    <use
       xlink:href="#glyph0-6"
       x="584.5625"
       y="296.0625"
       id="use1851"
       width="100%"
       height="100%" />
  </g>
  <g
     style="fill:#ffff66;fill-opacity:1"
     id="g1865"
     transform="translate(73.218751,-18.000001)">
    <use
       xlink:href="#glyph0-7"
       x="16"
       y="570.90625"
       id="use1855"
       width="100%"
       height="100%" />
    <use
       xlink:href="#glyph0-6"
       x="145.03125"
       y="570.90625"
       id="use1857"
       width="100%"
       height="100%" />
    <use
       xlink:href="#glyph0-8"
       x="257.92188"
       y="570.90625"
       id="use1859"
       width="100%"
       height="100%" />
    <use
       xlink:href="#glyph0-9"
       x="362.625"
       y="570.90625"
       id="use1861"
       width="100%"
       height="100%" />
    <use
       xlink:href="#glyph0-10"
       x="446.07812"
       y="570.90625"
       id="use1863"
       width="100%"
       height="100%" />
  </g>
  <g
     style="fill:#ffff66;fill-opacity:1"
     id="g1877"
     transform="translate(60.679689,12)">
    <use
       xlink:href="#glyph0-11"
       x="16"
       y="845.75"
       id="use1867"
       width="100%"
       height="100%" />
    <use
       xlink:href="#glyph0-12"
       x="143.75"
       y="845.75"
       id="use1869"
       width="100%"
       height="100%" />
    <use
       xlink:href="#glyph0-9"
       x="313.21875"
       y="845.75"
       id="use1871"
       width="100%"
       height="100%" />
    <use
       xlink:href="#glyph0-13"
       x="396.67188"
       y="845.75"
       id="use1873"
       width="100%"
       height="100%" />
    <use
       xlink:href="#glyph0-14"
       x="492.92188"
       y="845.75"
       id="use1875"
       width="100%"
       height="100%" />
  </g>
</svg>
